time,iteration,iteration_time,iteration_errors,acc_time,seq_errors,file_path,cycle_str,err_cycle,benchmark,SDC,stdout,stderr,DUE,DUE_type,its,iteration_cycle,error_format
2022-09-27 11:09:06,1,176.075,1,418.5485939979553,0,2022_09_27_11_02_07_GA8-cnn_gap8.log,RATIT:32768 ITS:23653 TIME_IT:5249 CYCLE_IT:913378 ACCTIME:123542179 ACCCYCLES:129293553,ITS:23653 TIME_IT:5249 CYCLE_IT:913378 CYCLES:129293553 TIME:123542179,cnnop_RAD_SEQUENTIAL_CONV,1,1,0,0,,23653.0,913378.0,SINGLE
2022-09-27 11:09:48,2,42.4444,1,460.9929885864258,1,2022_09_27_11_02_07_GA8-cnn_gap8.log,RATIT:32768 ITS:5088 TIME_IT:5218 CYCLE_IT:913378 ACCTIME:26575336 ACCCYCLES:352300165,ITS:5088 TIME_IT:5218 CYCLE_IT:913378 CYCLES:352300165 TIME:26575336,cnnop_RAD_SEQUENTIAL_CONV,1,1,0,0,,5088.0,913378.0,SQUARE
2022-09-27 11:11:13,3,84.5185,1,545.5114769935608,2,2022_09_27_11_02_07_GA8-cnn_gap8.log,RATIT:32768 ITS:11152 TIME_IT:5249 CYCLE_IT:913378 ACCTIME:58248303 ACCCYCLES:1596057063,ITS:11152 TIME_IT:5249 CYCLE_IT:913378 CYCLES:1596057063 TIME:58248303,cnnop_RAD_SEQUENTIAL_CONV,1,1,0,0,,11152.0,913378.0,SINGLE
2022-09-27 11:11:25,4,12.6403,1,558.1517944335938,3,2022_09_27_11_02_07_GA8-cnn_gap8.log,RATIT:32768 ITS:1019 TIME_IT:5218 CYCLE_IT:913378 ACCTIME:5322385 ACCCYCLES:930732378,ITS:1019 TIME_IT:5218 CYCLE_IT:913378 CYCLES:930732378 TIME:5322385,cnnop_RAD_SEQUENTIAL_CONV,1,1,0,0,,1019.0,913378.0,SQUARE
2022-09-27 11:12:18,5,52.4596,1,610.6113736629486,4,2022_09_27_11_02_07_GA8-cnn_gap8.log,RATIT:32768 ITS:6457 TIME_IT:5219 CYCLE_IT:913378 ACCTIME:33726086 ACCCYCLES:1602714651,ITS:6457 TIME_IT:5219 CYCLE_IT:913378 CYCLES:1602714651 TIME:33726086,cnnop_RAD_SEQUENTIAL_CONV,1,1,0,0,,6457.0,913378.0,SQUARE
2022-09-27 11:13:15,6,57.3965,1,668.0078332424164,5,2022_09_27_11_02_07_GA8-cnn_gap8.log,,,cnnop_RAD_SEQUENTIAL_CONV,1,1,0,0,,7128.0,913378.0,SQUARE
2022-09-27 11:13:49,7,33.6936,1,701.7014486789703,6,2022_09_27_11_02_07_GA8-cnn_gap8.log,,,cnnop_RAD_SEQUENTIAL_CONV,1,1,0,0,,4340.0,913378.0,SINGLE
2022-09-27 11:14:52,8,63.6135,1,765.3149547576904,7,2022_09_27_11_02_07_GA8-cnn_gap8.log,,,cnnop_RAD_SEQUENTIAL_CONV,1,1,0,0,,8284.0,913378.0,RANDOM
2022-09-27 11:16:08,9,75.0272,1,840.3421576023102,8,2022_09_27_11_02_07_GA8-cnn_gap8.log,RATIT:32768 ITS:9616 TIME_IT:5219 CYCLE_IT:913378 ACCTIME:50225404 ACCCYCLES:193108457,ITS:9616 TIME_IT:5219 CYCLE_IT:913378 CYCLES:193108457 TIME:50225404,cnnop_RAD_SEQUENTIAL_CONV,1,1,0,0,,9616.0,913378.0,SQUARE
2022-09-27 11:19:11,10,183.5952,1,1023.9373137950897,9,2022_09_27_11_02_07_GA8-cnn_gap8.log,RATIT:32768 ITS:24682 TIME_IT:5218 CYCLE_IT:913378 ACCTIME:128918065 ACCCYCLES:1069159515,ITS:24682 TIME_IT:5218 CYCLE_IT:913378 CYCLES:1069159515 TIME:128918065,cnnop_RAD_SEQUENTIAL_CONV,1,1,0,0,,24682.0,913378.0,SINGLE
2022-09-27 11:20:48,11,96.4007,1,1120.3380455970764,10,2022_09_27_11_02_07_GA8-cnn_gap8.log,,,cnnop_RAD_SEQUENTIAL_CONV,1,1,0,0,,12776.0,913378.0,SINGLE
2022-09-27 11:21:47,12,59.6486,1,1179.9866750240326,11,2022_09_27_11_02_07_GA8-cnn_gap8.log,,,cnnop_RAD_SEQUENTIAL_CONV,1,1,0,0,,7436.0,913378.0,SQUARE
2022-09-27 11:26:42,14,52.7256,1,1475.169934272766,0,2022_09_27_11_02_07_GA8-cnn_gap8.log,RATIT:32768 ITS:5793 TIME_IT:5249 CYCLE_IT:913378 ACCTIME:30257882 ACCCYCLES:996231657,ITS:5793 TIME_IT:5249 CYCLE_IT:913378 CYCLES:996231657 TIME:30257882,cnnop_RAD_SEQUENTIAL_CONV,1,1,0,0,,5793.0,913378.0,SQUARE
2022-09-27 11:28:29,15,106.2416,1,1581.4115586280823,1,2022_09_27_11_02_07_GA8-cnn_gap8.log,,,cnnop_RAD_SEQUENTIAL_CONV,1,1,0,0,,13783.0,913378.0,SQUARE
2022-09-27 11:30:41,16,132.0376,1,1713.4491913318634,2,2022_09_27_11_02_07_GA8-cnn_gap8.log,,,cnnop_RAD_SEQUENTIAL_CONV,1,1,0,0,,17359.0,913378.0,SQUARE
2022-09-27 11:31:04,17,22.9487,1,1736.3978641033173,3,2022_09_27_11_02_07_GA8-cnn_gap8.log,,,cnnop_RAD_SEQUENTIAL_CONV,1,1,0,0,,2752.0,913378.0,SINGLE
2022-09-27 11:32:16,18,72.7,1,1809.0978617668152,4,2022_09_27_11_02_07_GA8-cnn_gap8.log,,,cnnop_RAD_SEQUENTIAL_CONV,1,1,0,0,,8857.0,913378.0,SQUARE
2022-09-27 11:32:44,19,27.2869,1,1836.3847343921661,5,2022_09_27_11_02_07_GA8-cnn_gap8.log,,,cnnop_RAD_SEQUENTIAL_CONV,1,1,0,0,,3013.0,913378.0,SQUARE
2022-09-27 11:33:51,20,67.2354,1,1903.6200995445251,6,2022_09_27_11_02_07_GA8-cnn_gap8.log,,,cnnop_RAD_SEQUENTIAL_CONV,1,1,0,0,,8767.0,913378.0,RANDOM
2022-09-27 11:35:30,21,98.9305,1,2002.5506269931793,7,2022_09_27_11_02_07_GA8-cnn_gap8.log,,,cnnop_RAD_SEQUENTIAL_CONV,1,1,0,0,,13108.0,913378.0,SINGLE
2022-09-27 11:35:43,22,13.3615,1,2015.9121384620667,8,2022_09_27_11_02_07_GA8-cnn_gap8.log,RATIT:32768 ITS:1370 TIME_IT:5218 CYCLE_IT:913378 ACCTIME:7155520 ACCCYCLES:1251328059,ITS:1370 TIME_IT:5218 CYCLE_IT:913378 CYCLES:1251328059 TIME:7155520,cnnop_RAD_SEQUENTIAL_CONV,1,1,0,0,,1370.0,913378.0,LINE
2022-09-27 11:36:05,23,22.0265,1,2037.9385941028595,9,2022_09_27_11_02_07_GA8-cnn_gap8.log,,,cnnop_RAD_SEQUENTIAL_CONV,1,1,0,0,,2630.0,913378.0,SINGLE
2022-09-27 11:37:29,24,83.5419,1,2121.480469942093,10,2022_09_27_11_02_07_GA8-cnn_gap8.log,RATIT:32768 ITS:10686 TIME_IT:5249 CYCLE_IT:913378 ACCTIME:55810495 ACCCYCLES:1170422914,ITS:10686 TIME_IT:5249 CYCLE_IT:913378 CYCLES:1170422914 TIME:55810495,cnnop_RAD_SEQUENTIAL_CONV,1,1,0,0,,10686.0,913378.0,SQUARE
2022-09-27 11:37:46,25,16.5734,1,2138.053915500641,11,2022_09_27_11_02_07_GA8-cnn_gap8.log,RATIT:32768 ITS:1552 TIME_IT:5219 CYCLE_IT:913378 ACCTIME:8106457 ACCCYCLES:1417562857,ITS:1552 TIME_IT:5219 CYCLE_IT:913378 CYCLES:1417562857 TIME:8106457,cnnop_RAD_SEQUENTIAL_CONV,1,1,0,0,,1552.0,913378.0,SQUARE
2022-09-27 11:38:47,26,61.5541,1,2199.608038187027,12,2022_09_27_11_02_07_GA8-cnn_gap8.log,,,cnnop_RAD_SEQUENTIAL_CONV,1,1,0,0,,8020.0,913378.0,SINGLE
2022-09-27 11:39:47,27,60.0077,1,2259.6157326698303,13,2022_09_27_11_02_07_GA8-cnn_gap8.log,,,cnnop_RAD_SEQUENTIAL_CONV,1,1,0,0,,7900.0,913378.0,SQUARE
2022-09-27 11:40:23,28,35.8156,1,2295.4313294887543,14,2022_09_27_11_02_07_GA8-cnn_gap8.log,,,cnnop_RAD_SEQUENTIAL_CONV,1,1,0,0,,4484.0,913378.0,LINE
2022-09-27 11:41:09,29,46.1335,1,2341.564809322357,15,2022_09_27_11_02_07_GA8-cnn_gap8.log,RATIT:32768 ITS:6022 TIME_IT:5218 CYCLE_IT:913378 ACCTIME:31449022 ACCCYCLES:1205395218,ITS:6022 TIME_IT:5218 CYCLE_IT:913378 CYCLES:1205395218 TIME:31449022,cnnop_RAD_SEQUENTIAL_CONV,1,1,0,0,,6022.0,913378.0,LINE
2022-09-27 11:42:37,30,87.6021,1,2429.166877269745,16,2022_09_27_11_02_07_GA8-cnn_gap8.log,RATIT:32768 ITS:11541 TIME_IT:5219 CYCLE_IT:913378 ACCTIME:60271271 ACCCYCLES:1951361107,ITS:11541 TIME_IT:5219 CYCLE_IT:913378 CYCLES:1951361107 TIME:60271271,cnnop_RAD_SEQUENTIAL_CONV,1,1,0,0,,11541.0,913378.0,LINE
2022-09-27 11:42:56,31,18.9114,1,2448.0782396793365,17,2022_09_27_11_02_07_GA8-cnn_gap8.log,RATIT:32768 ITS:2204 TIME_IT:5219 CYCLE_IT:913378 ACCTIME:11510285 ACCCYCLES:2013085314,ITS:2204 TIME_IT:5219 CYCLE_IT:913378 CYCLES:2013085314 TIME:11510285,cnnop_RAD_SEQUENTIAL_CONV,1,1,0,0,,2204.0,913378.0,SINGLE
2022-09-27 11:43:21,32,25.1011,1,2473.179374933243,18,2022_09_27_11_02_07_GA8-cnn_gap8.log,,,cnnop_RAD_SEQUENTIAL_CONV,1,1,0,0,,2363.0,913378.0,SQUARE
2022-09-27 11:48:21,33,300.0695,2,2773.248859643936,0,2022_09_27_11_02_07_GA8-cnn_gap8.log,,,cnnop_RAD_SEQUENTIAL_CONV,0,1,1,1,TIMEOUT_ERROR,,,MASKED
2022-09-27 11:48:48,34,26.6869,1,2799.935804605484,0,2022_09_27_11_02_07_GA8-cnn_gap8.log,,,cnnop_RAD_SEQUENTIAL_CONV,1,1,0,0,,3259.0,913378.0,SINGLE
2022-09-27 11:50:09,35,81.2738,1,2881.209639787674,1,2022_09_27_11_02_07_GA8-cnn_gap8.log,RATIT:32768 ITS:10383 TIME_IT:5218 CYCLE_IT:913378 ACCTIME:54224062 ACCCYCLES:893669379,ITS:10383 TIME_IT:5218 CYCLE_IT:913378 CYCLES:893669379 TIME:54224062,cnnop_RAD_SEQUENTIAL_CONV,1,1,0,0,,10383.0,913378.0,SQUARE
2022-09-27 11:50:25,36,15.8125,1,2897.0221099853516,2,2022_09_27_11_02_07_GA8-cnn_gap8.log,,,cnnop_RAD_SEQUENTIAL_CONV,0,1,0,0,,,,MASKED
2022-09-27 11:51:30,37,65.0349,1,2962.0570158958435,3,2022_09_27_11_02_07_GA8-cnn_gap8.log,,,cnnop_RAD_SEQUENTIAL_CONV,1,1,0,0,,8252.0,913378.0,SQUARE
2022-09-27 11:53:30,38,119.8436,1,3081.9006283283234,4,2022_09_27_11_02_07_GA8-cnn_gap8.log,RATIT:32768 ITS:15969 TIME_IT:5219 CYCLE_IT:913378 ACCTIME:83397250 ACCCYCLES:1700831597,ITS:15969 TIME_IT:5219 CYCLE_IT:913378 CYCLES:1700831597 TIME:83397250,cnnop_RAD_SEQUENTIAL_CONV,1,1,0,0,,15969.0,913378.0,SINGLE
2022-09-27 11:54:37,39,67.638,1,3149.538587331772,5,2022_09_27_11_02_07_GA8-cnn_gap8.log,,,cnnop_RAD_SEQUENTIAL_CONV,1,1,0,0,,8847.0,913378.0,SINGLE
2022-09-27 11:55:30,40,52.4252,1,3201.9637978076935,6,2022_09_27_11_02_07_GA8-cnn_gap8.log,RATIT:32768 ITS:6737 TIME_IT:5219 CYCLE_IT:913378 ACCTIME:35183556 ACCCYCLES:1858460490,ITS:6737 TIME_IT:5219 CYCLE_IT:913378 CYCLES:1858460490 TIME:35183556,cnnop_RAD_SEQUENTIAL_CONV,1,1,0,0,,6737.0,913378.0,LINE
2022-09-27 11:57:24,41,113.6879,2,3315.651714324951,0,2022_09_27_11_02_07_GA8-cnn_gap8.log,,,cnnop_RAD_SEQUENTIAL_CONV,0,1,1,1,UNICODE_ERROR,,,MASKED
2022-09-27 11:58:23,42,59.1414,1,3374.7930850982666,0,2022_09_27_11_02_07_GA8-cnn_gap8.log,,,cnnop_RAD_SEQUENTIAL_CONV,1,1,0,0,,7685.0,913378.0,SINGLE
2022-09-27 11:59:16,43,53.618,1,3428.411041736603,1,2022_09_27_11_02_07_GA8-cnn_gap8.log,RATIT:32768 ITS:6802 TIME_IT:5249 CYCLE_IT:913378 ACCTIME:35522297 ACCCYCLES:1917830060,ITS:6802 TIME_IT:5249 CYCLE_IT:913378 CYCLES:1917830060 TIME:35522297,cnnop_RAD_SEQUENTIAL_CONV,1,1,0,0,,6802.0,913378.0,SQUARE
2022-09-27 12:00:54,44,97.3669,1,3525.7779014110565,2,2022_09_27_11_02_07_GA8-cnn_gap8.log,,,cnnop_RAD_SEQUENTIAL_CONV,1,1,0,0,,12735.0,913378.0,SQUARE
2022-09-27 12:02:15,45,80.9347,1,3606.7126252651215,3,2022_09_27_11_02_07_GA8-cnn_gap8.log,RATIT:32768 ITS:10335 TIME_IT:5219 CYCLE_IT:913379 ACCTIME:53973789 ACCCYCLES:849829656,ITS:10335 TIME_IT:5219 CYCLE_IT:913379 CYCLES:849829656 TIME:53973789,cnnop_RAD_SEQUENTIAL_CONV,1,1,0,0,,10335.0,913379.0,SQUARE
2022-09-27 12:03:01,46,46.6966,1,3653.4092195034027,4,2022_09_27_11_02_07_GA8-cnn_gap8.log,RATIT:32768 ITS:5659 TIME_IT:5219 CYCLE_IT:913378 ACCTIME:29553155 ACCCYCLES:873839003,ITS:5659 TIME_IT:5219 CYCLE_IT:913378 CYCLES:873839003 TIME:29553155,cnnop_RAD_SEQUENTIAL_CONV,1,1,0,0,,5659.0,913378.0,SQUARE
2022-09-27 12:03:12,47,10.2132,1,3663.622458934784,5,2022_09_27_11_02_07_GA8-cnn_gap8.log,RATIT:32768 ITS:689 TIME_IT:5218 CYCLE_IT:913378 ACCTIME:3598196 ACCCYCLES:629317639,ITS:689 TIME_IT:5218 CYCLE_IT:913378 CYCLES:629317639 TIME:3598196,cnnop_RAD_SEQUENTIAL_CONV,1,1,0,0,,689.0,913378.0,SQUARE
2022-09-27 12:03:40,48,28.305,1,3691.9274866580963,6,2022_09_27_11_02_07_GA8-cnn_gap8.log,,,cnnop_RAD_SEQUENTIAL_CONV,1,1,0,0,,3482.0,913378.0,SINGLE
2022-09-27 12:05:25,49,105.0032,1,3796.9306802749634,7,2022_09_27_11_02_07_GA8-cnn_gap8.log,,,cnnop_RAD_SEQUENTIAL_CONV,1,1,0,0,,13946.0,913378.0,SINGLE
2022-09-27 12:05:54,50,29.0299,1,3825.9605753421783,8,2022_09_27_11_02_07_GA8-cnn_gap8.log,,,cnnop_RAD_SEQUENTIAL_CONV,1,1,0,0,,3569.0,913378.0,LINE
2022-09-27 12:08:39,51,165.2121,1,3991.172676563263,9,2022_09_27_11_02_07_GA8-cnn_gap8.log,,,cnnop_RAD_SEQUENTIAL_CONV,1,1,0,0,,22166.0,913378.0,SINGLE
2022-09-27 12:13:39,52,300.1016,2,4291.274269580841,0,2022_09_27_11_02_07_GA8-cnn_gap8.log,,,cnnop_RAD_SEQUENTIAL_CONV,0,1,1,1,TIMEOUT_ERROR,,,MASKED
2022-09-27 12:14:02,53,22.1408,1,4313.415095329285,0,2022_09_27_11_02_07_GA8-cnn_gap8.log,RATIT:32768 ITS:2313 TIME_IT:5219 CYCLE_IT:913378 ACCTIME:12079455 ACCCYCLES:2112643514,ITS:2313 TIME_IT:5219 CYCLE_IT:913378 CYCLES:2112643514 TIME:12079455,cnnop_RAD_SEQUENTIAL_CONV,1,1,0,0,,2313.0,913378.0,SQUARE
2022-09-27 12:19:02,54,300.0114,2,4613.426472663879,0,2022_09_27_11_02_07_GA8-cnn_gap8.log,,,cnnop_RAD_SEQUENTIAL_CONV,0,1,1,1,TIMEOUT_ERROR,,,MASKED
2022-09-27 12:19:07,55,5.2557,1,4618.682132482529,0,2022_09_27_11_02_07_GA8-cnn_gap8.log,RATIT:32768 ITS:1 TIME_IT:5219 CYCLE_IT:913578 ACCTIME:5219 ACCCYCLES:913578,ITS:1 TIME_IT:5219 CYCLE_IT:913578 CYCLES:913578 TIME:5219,cnnop_RAD_SEQUENTIAL_CONV,1,1,0,0,,1.0,913578.0,SQUARE
2022-09-27 12:20:43,56,95.9011,1,4714.5831825733185,1,2022_09_27_11_02_07_GA8-cnn_gap8.log,,,cnnop_RAD_SEQUENTIAL_CONV,1,1,0,0,,12376.0,913378.0,SQUARE
2022-09-27 12:21:30,57,46.7912,1,4761.374384880066,2,2022_09_27_11_02_07_GA8-cnn_gap8.log,RATIT:32768 ITS:5672 TIME_IT:5219 CYCLE_IT:913378 ACCTIME:29621668 ACCCYCLES:885712919,ITS:5672 TIME_IT:5219 CYCLE_IT:913378 CYCLES:885712919 TIME:29621668,cnnop_RAD_SEQUENTIAL_CONV,1,1,0,0,,5672.0,913378.0,SQUARE
2022-09-27 12:22:30,58,60.8335,1,4822.207839012146,3,2022_09_27_11_02_07_GA8-cnn_gap8.log,,,cnnop_RAD_SEQUENTIAL_CONV,1,1,0,0,,7922.0,913378.0,SINGLE
2022-09-27 12:27:31,59,300.1038,2,5122.31160068512,0,2022_09_27_11_02_07_GA8-cnn_gap8.log,,,cnnop_RAD_SEQUENTIAL_CONV,0,1,1,1,TIMEOUT_ERROR,,,MASKED
2022-09-27 12:29:51,60,140.3822,1,5262.693846940994,0,2022_09_27_11_02_07_GA8-cnn_gap8.log,,,cnnop_RAD_SEQUENTIAL_CONV,1,1,0,0,,18772.0,913378.0,SINGLE
2022-09-27 12:31:44,61,112.6896,1,5375.383489847183,1,2022_09_27_11_02_07_GA8-cnn_gap8.log,RATIT:32768 ITS:14664 TIME_IT:5219 CYCLE_IT:913378 ACCTIME:76581005 ACCCYCLES:508873300,ITS:14664 TIME_IT:5219 CYCLE_IT:913378 CYCLES:508873300 TIME:76581005,cnnop_RAD_SEQUENTIAL_CONV,1,1,0,0,,14664.0,913378.0,SQUARE
2022-09-27 12:32:24,62,39.9137,1,5415.297186613083,2,2022_09_27_11_02_07_GA8-cnn_gap8.log,RATIT:32768 ITS:5069 TIME_IT:5219 CYCLE_IT:913378 ACCTIME:26472230 ACCCYCLES:334946009,ITS:5069 TIME_IT:5219 CYCLE_IT:913378 CYCLES:334946009 TIME:26472230,cnnop_RAD_SEQUENTIAL_CONV,1,1,0,0,,5069.0,913378.0,SINGLE
2022-09-27 12:32:31,63,7.4873,1,5422.784519910812,3,2022_09_27_11_02_07_GA8-cnn_gap8.log,,ITS:641 TIME_IT:5218 CYCLE_IT:913378 CYCLES:585475498 TIME:3347514,cnnop_RAD_SEQUENTIAL_CONV,1,1,0,0,,641.0,913378.0,SINGLE
2022-09-27 12:33:57,64,85.818,1,5508.602471590042,4,2022_09_27_11_02_07_GA8-cnn_gap8.log,RATIT:32768 ITS:11327 TIME_IT:5249 CYCLE_IT:913378 ACCTIME:59153608 ACCCYCLES:1755898213,ITS:11327 TIME_IT:5249 CYCLE_IT:913378 CYCLES:1755898213 TIME:59153608,cnnop_RAD_SEQUENTIAL_CONV,1,1,0,0,,11327.0,913378.0,SINGLE
2022-09-27 12:43:00,66,300.0964,2,6051.227112770081,0,2022_09_27_11_02_07_GA8-cnn_gap8.log,,,cnnop_RAD_SEQUENTIAL_CONV,0,1,1,1,TIMEOUT_ERROR,,,MASKED
2022-09-27 12:43:11,67,11.7193,1,6062.946411371231,0,2022_09_27_11_02_07_GA8-cnn_gap8.log,RATIT:32768 ITS:1025 TIME_IT:5219 CYCLE_IT:913378 ACCTIME:5352845 ACCCYCLES:936212650,ITS:1025 TIME_IT:5219 CYCLE_IT:913378 CYCLES:936212650 TIME:5352845,cnnop_RAD_SEQUENTIAL_CONV,1,1,0,0,,1025.0,913378.0,SQUARE
2022-09-27 12:44:18,68,66.8936,1,6129.840005874634,1,2022_09_27_11_02_07_GA8-cnn_gap8.log,,,cnnop_RAD_SEQUENTIAL_CONV,1,1,0,0,,8756.0,913378.0,SINGLE
2022-09-27 12:45:33,69,75.1692,1,6205.009202957153,2,2022_09_27_11_02_07_GA8-cnn_gap8.log,,,cnnop_RAD_SEQUENTIAL_CONV,1,1,0,0,,7458.0,913378.0,SQUARE
2022-09-27 12:45:47,70,13.8199,1,6218.82913184166,3,2022_09_27_11_02_07_GA8-cnn_gap8.log,RATIT:32768 ITS:812 TIME_IT:5219 CYCLE_IT:913378 ACCTIME:4240420 ACCCYCLES:741663135,ITS:812 TIME_IT:5219 CYCLE_IT:913378 CYCLES:741663135 TIME:4240420,cnnop_RAD_SEQUENTIAL_CONV,1,1,0,0,,812.0,913378.0,SQUARE
2022-09-27 12:46:02,71,14.1648,1,6232.9939732551575,4,2022_09_27_11_02_07_GA8-cnn_gap8.log,RATIT:32768 ITS:1557 TIME_IT:5219 CYCLE_IT:913378 ACCTIME:8131218 ACCCYCLES:1422129744,ITS:1557 TIME_IT:5219 CYCLE_IT:913378 CYCLES:1422129744 TIME:8131218,cnnop_RAD_SEQUENTIAL_CONV,1,1,0,0,,1557.0,913378.0,SINGLE
2022-09-27 12:51:02,72,300.0312,2,6533.025131702423,0,2022_09_27_11_02_07_GA8-cnn_gap8.log,,,cnnop_RAD_SEQUENTIAL_CONV,0,1,1,1,TIMEOUT_ERROR,,,MASKED
2022-09-27 12:51:17,73,15.5055,1,6548.5305960178375,0,2022_09_27_11_02_07_GA8-cnn_gap8.log,RATIT:32768 ITS:1836 TIME_IT:5218 CYCLE_IT:913378 ACCTIME:9588067 ACCCYCLES:1676962208,ITS:1836 TIME_IT:5218 CYCLE_IT:913378 CYCLES:1676962208 TIME:9588067,cnnop_RAD_SEQUENTIAL_CONV,1,1,0,0,,1836.0,913378.0,RANDOM
2022-09-27 12:51:31,74,14.0647,1,6562.5953204631805,1,2022_09_27_11_02_07_GA8-cnn_gap8.log,RATIT:32768 ITS:1533 TIME_IT:5219 CYCLE_IT:913378 ACCTIME:8006063 ACCCYCLES:1400208673,ITS:1533 TIME_IT:5219 CYCLE_IT:913378 CYCLES:1400208673 TIME:8006063,cnnop_RAD_SEQUENTIAL_CONV,1,1,0,0,,1533.0,913378.0,SINGLE
2022-09-27 12:52:35,75,63.94,1,6626.535364151001,2,2022_09_27_11_02_07_GA8-cnn_gap8.log,,,cnnop_RAD_SEQUENTIAL_CONV,1,1,0,0,,8346.0,913378.0,SINGLE
2022-09-27 12:52:46,76,10.5627,1,6637.098099470139,3,2022_09_27_11_02_07_GA8-cnn_gap8.log,RATIT:32768 ITS:1021 TIME_IT:5249 CYCLE_IT:913378 ACCTIME:5332033 ACCCYCLES:932559138,ITS:1021 TIME_IT:5249 CYCLE_IT:913378 CYCLES:932559138 TIME:5332033,cnnop_RAD_SEQUENTIAL_CONV,1,1,0,0,,1021.0,913378.0,SQUARE
2022-09-27 12:53:09,77,23.0374,1,6660.135534524918,4,2022_09_27_11_02_07_GA8-cnn_gap8.log,,,cnnop_RAD_SEQUENTIAL_CONV,1,1,0,0,,2758.0,913378.0,SINGLE
2022-09-27 12:53:14,78,5.0659,1,6665.201471090317,5,2022_09_27_11_02_07_GA8-cnn_gap8.log,RATIT:32768 ITS:306 TIME_IT:5218 CYCLE_IT:913378 ACCTIME:1598088 ACCCYCLES:279493866,ITS:306 TIME_IT:5218 CYCLE_IT:913378 CYCLES:279493866 TIME:1598088,cnnop_RAD_SEQUENTIAL_CONV,1,1,0,0,,306.0,913378.0,SINGLE
2022-09-27 12:54:08,79,54.4547,1,6719.656147241592,6,2022_09_27_11_02_07_GA8-cnn_gap8.log,RATIT:32768 ITS:7051 TIME_IT:5218 CYCLE_IT:913378 ACCTIME:36822859 ACCCYCLES:2145261183,ITS:7051 TIME_IT:5218 CYCLE_IT:913378 CYCLES:2145261183 TIME:36822859,cnnop_RAD_SEQUENTIAL_CONV,1,1,0,0,,7051.0,913378.0,SINGLE
2022-09-27 12:54:16,80,7.281,1,6726.937174081802,7,2022_09_27_11_02_07_GA8-cnn_gap8.log,RATIT:32768 ITS:613 TIME_IT:5218 CYCLE_IT:913378 ACCTIME:3201478 ACCCYCLES:559900914,ITS:613 TIME_IT:5218 CYCLE_IT:913378 CYCLES:559900914 TIME:3201478,cnnop_RAD_SEQUENTIAL_CONV,1,1,0,0,,613.0,913378.0,SINGLE
2022-09-27 12:54:23,81,7.6125,1,6734.549633979797,8,2022_09_27_11_02_07_GA8-cnn_gap8.log,RATIT:32768 ITS:638 TIME_IT:5218 CYCLE_IT:913378 ACCTIME:3331903 ACCCYCLES:582735362,ITS:638 TIME_IT:5218 CYCLE_IT:913378 CYCLES:582735362 TIME:3331903,cnnop_RAD_SEQUENTIAL_CONV,1,1,0,0,,638.0,913378.0,RANDOM
2022-09-27 12:59:23,82,300.0998,2,7034.649434089661,0,2022_09_27_11_02_07_GA8-cnn_gap8.log,,,cnnop_RAD_SEQUENTIAL_CONV,0,1,1,1,TIMEOUT_ERROR,,,MASKED
2022-09-27 13:00:59,83,95.4218,1,7130.071187496185,0,2022_09_27_11_02_07_GA8-cnn_gap8.log,,,cnnop_RAD_SEQUENTIAL_CONV,1,1,0,0,,12308.0,913378.0,SQUARE
2022-09-27 13:02:44,84,105.0978,1,7235.168943405151,1,2022_09_27_11_02_07_GA8-cnn_gap8.log,,,cnnop_RAD_SEQUENTIAL_CONV,1,1,0,0,,13954.0,913378.0,SINGLE
2022-09-27 13:02:47,85,2.8336,1,7238.002538919449,2,2022_09_27_11_02_07_GA8-cnn_gap8.log,RATIT:32768 ITS:1 TIME_IT:5249 CYCLE_IT:913577 ACCTIME:5249 ACCCYCLES:913577,ITS:1 TIME_IT:5249 CYCLE_IT:913577 CYCLES:913577 TIME:5249,cnnop_RAD_SEQUENTIAL_CONV,1,1,0,0,,1.0,913577.0,SINGLE
2022-09-27 13:03:56,86,69.0922,1,7307.09469628334,3,2022_09_27_11_02_07_GA8-cnn_gap8.log,,,cnnop_RAD_SEQUENTIAL_CONV,1,1,0,0,,9044.0,913378.0,SINGLE
2022-09-27 13:04:15,87,18.5842,1,7325.678871870041,4,2022_09_27_11_02_07_GA8-cnn_gap8.log,RATIT:32768 ITS:1906 TIME_IT:5218 CYCLE_IT:913378 ACCTIME:9955050 ACCCYCLES:1740898665,ITS:1906 TIME_IT:5218 CYCLE_IT:913378 CYCLES:1740898665 TIME:9955050,cnnop_RAD_SEQUENTIAL_CONV,1,1,0,0,,1906.0,913378.0,SQUARE
2022-09-27 13:04:22,88,7.0704,1,7332.749262809753,5,2022_09_27_11_02_07_GA8-cnn_gap8.log,RATIT:32768 ITS:584 TIME_IT:5218 CYCLE_IT:913378 ACCTIME:3050302 ACCCYCLES:533412953,ITS:584 TIME_IT:5218 CYCLE_IT:913378 CYCLES:533412953 TIME:3050302,cnnop_RAD_SEQUENTIAL_CONV,1,1,0,0,,584.0,913378.0,SINGLE
2022-09-27 13:05:06,89,44.3112,1,7377.060454368591,6,2022_09_27_11_02_07_GA8-cnn_gap8.log,RATIT:32768 ITS:5630 TIME_IT:5249 CYCLE_IT:913378 ACCTIME:29404410 ACCCYCLES:847351044,ITS:5630 TIME_IT:5249 CYCLE_IT:913378 CYCLES:847351044 TIME:29404410,cnnop_RAD_SEQUENTIAL_CONV,1,1,0,0,,5630.0,913378.0,RANDOM
2022-09-27 13:06:30,90,83.6646,1,7460.725008249283,7,2022_09_27_11_02_07_GA8-cnn_gap8.log,RATIT:32768 ITS:10882 TIME_IT:5219 CYCLE_IT:913378 ACCTIME:56830669 ACCCYCLES:1349445002,ITS:10882 TIME_IT:5219 CYCLE_IT:913378 CYCLES:1349445002 TIME:56830669,cnnop_RAD_SEQUENTIAL_CONV,1,1,0,0,,10882.0,913378.0,SQUARE
2022-09-27 13:06:41,91,10.8285,1,7471.553522825241,8,2022_09_27_11_02_07_GA8-cnn_gap8.log,RATIT:32768 ITS:1099 TIME_IT:5219 CYCLE_IT:913378 ACCTIME:5739315 ACCCYCLES:1003802621,ITS:1099 TIME_IT:5219 CYCLE_IT:913378 CYCLES:1003802621 TIME:5739315,cnnop_RAD_SEQUENTIAL_CONV,1,1,0,0,,1099.0,913378.0,SINGLE
2022-09-27 13:07:11,92,30.409,1,7501.96249127388,9,2022_09_27_11_02_07_GA8-cnn_gap8.log,,,cnnop_RAD_SEQUENTIAL_CONV,1,1,0,0,,3509.0,913378.0,SQUARE
2022-09-27 13:12:11,93,300.0072,2,7801.9696633815765,0,2022_09_27_11_02_07_GA8-cnn_gap8.log,,,cnnop_RAD_SEQUENTIAL_CONV,0,1,1,1,TIMEOUT_ERROR,,,MASKED
2022-09-27 09:45:42,2,72.6765,1,224.31786561012268,0,2022_09_27_09_41_58_GA8-cnn_gap8.log,RATIT:32768 ITS:29001 TIME_IT:122 CYCLE_IT:22813 ACCTIME:3912423 ACCCYCLES:661120000,ITS:29001 TIME_IT:122 CYCLE_IT:22813 CYCLES:661120000 TIME:3912423,cnnop_RAD_PARALLEL_VECT_CONV,1,1,0,0,,29001.0,22813.0,SQUARE
2022-09-27 09:47:20,4,21.3308,1,321.4627993106842,0,2022_09_27_09_41_58_GA8-cnn_gap8.log,RATIT:32768 ITS:8286 TIME_IT:122 CYCLE_IT:22727 ACCTIME:1117124 ACCCYCLES:188890302,ITS:8286 TIME_IT:122 CYCLE_IT:22727 CYCLES:188890302 TIME:1117124,cnnop_RAD_PARALLEL_VECT_CONV,1,1,0,0,,8286.0,22727.0,SINGLE
2022-09-27 09:48:25,5,65.703,1,387.1658375263214,1,2022_09_27_09_41_58_GA8-cnn_gap8.log,RATIT:32768 ITS:27008 TIME_IT:153 CYCLE_IT:22739 ACCTIME:3643872 ACCCYCLES:615685537,ITS:27008 TIME_IT:153 CYCLE_IT:22739 CYCLES:615685537 TIME:3643872,cnnop_RAD_PARALLEL_VECT_CONV,1,1,0,0,,27008.0,22739.0,SQUARE
2022-09-27 09:49:13,6,48.2202,1,435.38604521751404,2,2022_09_27_09_41_58_GA8-cnn_gap8.log,RATIT:32768 ITS:19323 TIME_IT:152 CYCLE_IT:22965 ACCTIME:2607245 ACCCYCLES:440494922,ITS:19323 TIME_IT:152 CYCLE_IT:22965 CYCLES:440494922 TIME:2607245,cnnop_RAD_PARALLEL_VECT_CONV,1,1,0,0,,19323.0,22965.0,SQUARE
2022-09-27 09:50:42,8,12.8339,1,523.9081892967224,0,2022_09_27_09_41_58_GA8-cnn_gap8.log,RATIT:32768 ITS:4487 TIME_IT:122 CYCLE_IT:22832 ACCTIME:604898 ACCCYCLES:102290618,ITS:4487 TIME_IT:122 CYCLE_IT:22832 CYCLES:102290618 TIME:604898,cnnop_RAD_PARALLEL_VECT_CONV,1,1,0,0,,4487.0,22832.0,SINGLE
2022-09-27 09:52:35,10,37.2325,1,636.8300409317017,0,2022_09_27_09_41_58_GA8-cnn_gap8.log,RATIT:32768 ITS:15767 TIME_IT:152 CYCLE_IT:22832 ACCTIME:2126621 ACCCYCLES:359462651,ITS:15767 TIME_IT:152 CYCLE_IT:22832 CYCLES:359462651 TIME:2126621,cnnop_RAD_PARALLEL_VECT_CONV,1,1,0,0,,15767.0,22832.0,SINGLE
2022-09-27 09:57:35,11,300.0969,2,936.9269886016846,0,2022_09_27_09_41_58_GA8-cnn_gap8.log,,,cnnop_RAD_PARALLEL_VECT_CONV,0,1,1,1,TIMEOUT_ERROR,,,MASKED
2022-09-27 09:59:02,13,10.6098,1,1023.3031661510468,0,2022_09_27_09_41_58_GA8-cnn_gap8.log,RATIT:32768 ITS:2435 TIME_IT:153 CYCLE_IT:22965 ACCTIME:328557 ACCCYCLES:55512146,ITS:2435 TIME_IT:153 CYCLE_IT:22965 CYCLES:55512146 TIME:328557,cnnop_RAD_PARALLEL_VECT_CONV,1,1,0,0,,2435.0,22965.0,SQUARE
2022-09-27 09:59:22,14,20.2255,1,1043.5287010669708,1,2022_09_27_09_41_58_GA8-cnn_gap8.log,RATIT:32768 ITS:7779 TIME_IT:122 CYCLE_IT:22805 ACCTIME:1050050 ACCCYCLES:177343044,ITS:7779 TIME_IT:122 CYCLE_IT:22805 CYCLES:177343044 TIME:1050050,cnnop_RAD_PARALLEL_VECT_CONV,1,1,0,0,,7779.0,22805.0,SINGLE
2022-09-27 10:01:21,16,42.9549,1,1162.2595324516296,0,2022_09_27_09_41_58_GA8-cnn_gap8.log,RATIT:32768 ITS:15048 TIME_IT:122 CYCLE_IT:22748 ACCTIME:2032506 ACCCYCLES:343064277,ITS:15048 TIME_IT:122 CYCLE_IT:22748 CYCLES:343064277 TIME:2032506,cnnop_RAD_PARALLEL_VECT_CONV,1,1,0,0,,15048.0,22748.0,SQUARE
2022-09-27 10:03:18,18,41.7143,1,1279.7477762699127,0,2022_09_27_09_41_58_GA8-cnn_gap8.log,RATIT:32768 ITS:16330 TIME_IT:123 CYCLE_IT:22746 ACCTIME:2206749 ACCCYCLES:372294898,ITS:16330 TIME_IT:123 CYCLE_IT:22746 CYCLES:372294898 TIME:2206749,cnnop_RAD_PARALLEL_VECT_CONV,1,1,0,0,,16330.0,22746.0,SQUARE
2022-09-27 10:03:22,19,4.353,1,1284.1007347106934,1,2022_09_27_09_41_58_GA8-cnn_gap8.log,RATIT:32768 ITS:716 TIME_IT:122 CYCLE_IT:22838 ACCTIME:96613 ACCCYCLES:16322544,ITS:716 TIME_IT:122 CYCLE_IT:22838 CYCLES:16322544 TIME:96613,cnnop_RAD_PARALLEL_VECT_CONV,1,1,0,0,,716.0,22838.0,SINGLE
2022-09-27 10:04:17,20,55.0811,1,1339.1818280220032,2,2022_09_27_09_41_58_GA8-cnn_gap8.log,RATIT:32768 ITS:21774 TIME_IT:2259 CYCLE_IT:22745 ACCTIME:49772125 ACCCYCLES:496396740,ITS:21774 TIME_IT:2259 CYCLE_IT:22745 CYCLES:496396740 TIME:49772125,cnnop_RAD_PARALLEL_VECT_CONV,1,1,0,0,,21774.0,22745.0,SQUARE
2022-09-27 10:04:42,21,24.975,1,1364.1568412780762,3,2022_09_27_09_41_58_GA8-cnn_gap8.log,RATIT:32768 ITS:9928 TIME_IT:153 CYCLE_IT:22829 ACCTIME:1340632 ACCCYCLES:226332530,ITS:9928 TIME_IT:153 CYCLE_IT:22829 CYCLES:226332530 TIME:1340632,cnnop_RAD_PARALLEL_VECT_CONV,1,1,0,0,,9928.0,22829.0,SINGLE
2022-09-27 10:05:14,22,31.2359,1,1395.3927421569824,4,2022_09_27_09_41_58_GA8-cnn_gap8.log,RATIT:32768 ITS:12657 TIME_IT:122 CYCLE_IT:22791 ACCTIME:1709977 ACCCYCLES:288549565,ITS:12657 TIME_IT:122 CYCLE_IT:22791 CYCLES:288549565 TIME:1709977,cnnop_RAD_PARALLEL_VECT_CONV,1,1,0,0,,12657.0,22791.0,RANDOM
2022-09-27 10:05:28,23,13.8474,1,1409.2401192188263,5,2022_09_27_09_41_58_GA8-cnn_gap8.log,RATIT:32768 ITS:4950 TIME_IT:123 CYCLE_IT:22745 ACCTIME:668705 ACCCYCLES:112852415,ITS:4950 TIME_IT:123 CYCLE_IT:22745 CYCLES:112852415 TIME:668705,cnnop_RAD_PARALLEL_VECT_CONV,1,1,0,0,,4950.0,22745.0,SINGLE
2022-09-27 10:06:08,24,40.2775,1,1449.5176026821136,6,2022_09_27_09_41_58_GA8-cnn_gap8.log,RATIT:32768 ITS:15776 TIME_IT:153 CYCLE_IT:22765 ACCTIME:2130979 ACCCYCLES:359645832,ITS:15776 TIME_IT:153 CYCLE_IT:22765 CYCLES:359645832 TIME:2130979,cnnop_RAD_PARALLEL_VECT_CONV,1,1,0,0,,15776.0,22765.0,SQUARE
2022-09-27 10:06:25,25,17.3947,1,1466.912343263626,7,2022_09_27_09_41_58_GA8-cnn_gap8.log,RATIT:32768 ITS:6523 TIME_IT:122 CYCLE_IT:22933 ACCTIME:880867 ACCCYCLES:148704530,ITS:6523 TIME_IT:122 CYCLE_IT:22933 CYCLES:148704530 TIME:880867,cnnop_RAD_PARALLEL_VECT_CONV,1,1,0,0,,6523.0,22933.0,SINGLE
2022-09-27 10:11:25,26,300.0157,2,1766.928034067154,0,2022_09_27_09_41_58_GA8-cnn_gap8.log,,,cnnop_RAD_PARALLEL_VECT_CONV,0,1,1,1,TIMEOUT_ERROR,,,MASKED
2022-09-27 10:16:25,27,300.009,2,2066.937008857727,1,2022_09_27_09_41_58_GA8-cnn_gap8.log,,,cnnop_RAD_PARALLEL_VECT_CONV,0,1,1,1,TIMEOUT_ERROR,,,MASKED
2022-09-27 10:16:50,28,24.4566,1,2091.393579721451,0,2022_09_27_09_41_58_GA8-cnn_gap8.log,RATIT:32768 ITS:9697 TIME_IT:153 CYCLE_IT:22744 ACCTIME:1307951 ACCCYCLES:221064159,ITS:9697 TIME_IT:153 CYCLE_IT:22744 CYCLES:221064159 TIME:1307951,cnnop_RAD_PARALLEL_VECT_CONV,1,1,0,0,,9697.0,22744.0,SINGLE
2022-09-27 10:19:33,31,11.3124,1,2254.2925877571106,0,2022_09_27_09_41_58_GA8-cnn_gap8.log,RATIT:32768 ITS:2744 TIME_IT:122 CYCLE_IT:22748 ACCTIME:370730 ACCCYCLES:62556128,ITS:2744 TIME_IT:122 CYCLE_IT:22748 CYCLES:62556128 TIME:370730,cnnop_RAD_PARALLEL_VECT_CONV,1,1,0,0,,2744.0,22748.0,SQUARE
2022-09-27 10:21:14,33,25.37,1,2355.4474301338196,0,2022_09_27_09_41_58_GA8-cnn_gap8.log,RATIT:32768 ITS:10106 TIME_IT:153 CYCLE_IT:22857 ACCTIME:1364036 ACCCYCLES:230382347,ITS:10106 TIME_IT:153 CYCLE_IT:22857 CYCLES:230382347 TIME:1364036,cnnop_RAD_PARALLEL_VECT_CONV,1,1,0,0,,10106.0,22857.0,SINGLE
2022-09-27 10:23:05,35,35.4856,1,2466.7162132263184,0,2022_09_27_09_41_58_GA8-cnn_gap8.log,RATIT:32768 ITS:14584 TIME_IT:153 CYCLE_IT:22730 ACCTIME:1969290 ACCCYCLES:332466073,ITS:14584 TIME_IT:153 CYCLE_IT:22730 CYCLES:332466073 TIME:1969290,cnnop_RAD_PARALLEL_VECT_CONV,1,1,0,0,,14584.0,22730.0,SINGLE
2022-09-27 10:23:40,36,35.187,1,2501.9031944274902,1,2022_09_27_09_41_58_GA8-cnn_gap8.log,RATIT:32768 ITS:14494 TIME_IT:122 CYCLE_IT:22745 ACCTIME:1957087 ACCCYCLES:330421541,ITS:14494 TIME_IT:122 CYCLE_IT:22745 CYCLES:330421541 TIME:1957087,cnnop_RAD_PARALLEL_VECT_CONV,1,1,0,0,,14494.0,22745.0,SINGLE
2022-09-27 10:24:39,37,58.298,1,2560.2012283802032,2,2022_09_27_09_41_58_GA8-cnn_gap8.log,RATIT:32768 ITS:24588 TIME_IT:122 CYCLE_IT:22844 ACCTIME:3320260 ACCCYCLES:560545676,ITS:24588 TIME_IT:122 CYCLE_IT:22844 CYCLES:560545676 TIME:3320260,cnnop_RAD_PARALLEL_VECT_CONV,1,1,0,0,,24588.0,22844.0,LINE
2022-09-27 10:25:33,38,54.1526,1,2614.353854894638,3,2022_09_27_09_41_58_GA8-cnn_gap8.log,RATIT:32768 ITS:22970 TIME_IT:122 CYCLE_IT:22857 ACCTIME:3102573 ACCCYCLES:523654530,ITS:22970 TIME_IT:122 CYCLE_IT:22857 CYCLES:523654530 TIME:3102573,cnnop_RAD_PARALLEL_VECT_CONV,1,1,0,0,,22970.0,22857.0,SINGLE
2022-09-27 10:25:48,39,15.4119,1,2629.7657146453857,4,2022_09_27_09_41_58_GA8-cnn_gap8.log,RATIT:32768 ITS:5068 TIME_IT:122 CYCLE_IT:22798 ACCTIME:684228 ACCCYCLES:115533309,ITS:5068 TIME_IT:122 CYCLE_IT:22798 CYCLES:115533309 TIME:684228,cnnop_RAD_PARALLEL_VECT_CONV,1,1,0,0,,5068.0,22798.0,SQUARE
2022-09-27 10:26:55,40,66.4843,1,2696.2499833106995,5,2022_09_27_09_41_58_GA8-cnn_gap8.log,RATIT:32768 ITS:27165 TIME_IT:152 CYCLE_IT:22872 ACCTIME:3668063 ACCCYCLES:619287726,ITS:27165 TIME_IT:152 CYCLE_IT:22872 CYCLES:619287726 TIME:3668063,cnnop_RAD_PARALLEL_VECT_CONV,1,1,0,0,,27165.0,22872.0,SQUARE
2022-09-27 10:27:20,41,25.0181,1,2721.2680468559265,6,2022_09_27_09_41_58_GA8-cnn_gap8.log,RATIT:32768 ITS:9830 TIME_IT:122 CYCLE_IT:22727 ACCTIME:1326659 ACCCYCLES:224090382,ITS:9830 TIME_IT:122 CYCLE_IT:22727 CYCLES:224090382 TIME:1326659,cnnop_RAD_PARALLEL_VECT_CONV,1,1,0,0,,9830.0,22727.0,LINE
2022-09-27 10:27:35,42,14.6555,1,2735.923585653305,7,2022_09_27_09_41_58_GA8-cnn_gap8.log,RATIT:32768 ITS:5301 TIME_IT:122 CYCLE_IT:22818 ACCTIME:716595 ACCCYCLES:120854864,ITS:5301 TIME_IT:122 CYCLE_IT:22818 CYCLES:120854864 TIME:716595,cnnop_RAD_PARALLEL_VECT_CONV,1,1,0,0,,5301.0,22818.0,SINGLE
2022-09-27 10:31:22,45,75.8049,1,2963.207376718521,0,2022_09_27_09_41_58_GA8-cnn_gap8.log,RATIT:32768 ITS:32768 TIME_IT:122 CYCLE_IT:22801 ACCTIME:4425533 ACCCYCLES:747026548,,cnnop_RAD_PARALLEL_VECT_CONV,0,0,1,0,,,,MASKED
2022-09-27 10:32:05,46,42.9321,1,3006.1394436359406,1,2022_09_27_09_41_58_GA8-cnn_gap8.log,RATIT:32768 ITS:17955 TIME_IT:123 CYCLE_IT:22789 ACCTIME:2424293 ACCCYCLES:409334987,ITS:17955 TIME_IT:123 CYCLE_IT:22789 CYCLES:409334987 TIME:2424293,cnnop_RAD_PARALLEL_VECT_CONV,1,1,0,0,,17955.0,22789.0,SINGLE
2022-09-27 10:32:55,47,50.4263,1,3056.565711736679,2,2022_09_27_09_41_58_GA8-cnn_gap8.log,RATIT:32768 ITS:21280 TIME_IT:152 CYCLE_IT:22854 ACCTIME:2873382 ACCCYCLES:485128991,ITS:21280 TIME_IT:152 CYCLE_IT:22854 CYCLES:485128991 TIME:2873382,cnnop_RAD_PARALLEL_VECT_CONV,1,1,0,0,,21280.0,22854.0,SINGLE
2022-09-27 10:35:20,49,68.9106,1,3201.1626873016357,0,2022_09_27_09_41_58_GA8-cnn_gap8.log,RATIT:32768 ITS:29530 TIME_IT:122 CYCLE_IT:22872 ACCTIME:3983965 ACCCYCLES:673234477,ITS:29530 TIME_IT:122 CYCLE_IT:22872 CYCLES:673234477 TIME:3983965,cnnop_RAD_PARALLEL_VECT_CONV,1,1,0,0,,29530.0,22872.0,SINGLE
2022-09-27 10:37:08,51,31.8307,1,3308.6745722293854,0,2022_09_27_09_41_58_GA8-cnn_gap8.log,RATIT:32768 ITS:12991 TIME_IT:122 CYCLE_IT:22745 ACCTIME:1753216 ACCCYCLES:296168485,ITS:12991 TIME_IT:122 CYCLE_IT:22745 CYCLES:296168485 TIME:1753216,cnnop_RAD_PARALLEL_VECT_CONV,1,1,0,0,,12991.0,22745.0,SINGLE
2022-09-27 10:41:57,55,62.6167,1,3598.468042373657,0,2022_09_27_09_41_58_GA8-cnn_gap8.log,RATIT:32768 ITS:19988 TIME_IT:122 CYCLE_IT:22792 ACCTIME:2699148 ACCCYCLES:455693392,ITS:19988 TIME_IT:122 CYCLE_IT:22792 CYCLES:455693392 TIME:2699148,cnnop_RAD_PARALLEL_VECT_CONV,1,1,0,0,,19988.0,22792.0,SQUARE
2022-09-27 10:42:08,56,11.0121,1,3609.480161190033,1,2022_09_27_09_41_58_GA8-cnn_gap8.log,RATIT:32768 ITS:2596 TIME_IT:122 CYCLE_IT:22798 ACCTIME:350890 ACCCYCLES:59185513,ITS:2596 TIME_IT:122 CYCLE_IT:22798 CYCLES:59185513 TIME:350890,cnnop_RAD_PARALLEL_VECT_CONV,1,1,0,0,,2596.0,22798.0,SQUARE
2022-09-27 10:43:27,58,3.4316,1,3688.5898928642273,0,2022_09_27_09_41_58_GA8-cnn_gap8.log,RATIT:32768 ITS:312 TIME_IT:122 CYCLE_IT:22748 ACCTIME:41653 ACCCYCLES:7114325,ITS:312 TIME_IT:122 CYCLE_IT:22748 CYCLES:7114325 TIME:41653,cnnop_RAD_PARALLEL_VECT_CONV,1,1,0,0,,312.0,22748.0,SINGLE
2022-09-27 10:43:55,59,27.5728,1,3716.1626431941986,1,2022_09_27_09_41_58_GA8-cnn_gap8.log,RATIT:32768 ITS:11059 TIME_IT:153 CYCLE_IT:22789 ACCTIME:1491533 ACCCYCLES:252129335,ITS:11059 TIME_IT:153 CYCLE_IT:22789 CYCLES:252129335 TIME:1491533,cnnop_RAD_PARALLEL_VECT_CONV,1,1,0,0,,11059.0,22789.0,SINGLE
2022-09-27 19:29:40,3,45.5665,1,220.57918524742126,0,2022_09_27_19_25_59_GA8-cnn_gap8.log,RATIT:65536 ITS:50066 TIME_IT:153 CYCLE_IT:25675 ACCTIME:7537760 ACCCYCLES:1285444698,ITS:50066 TIME_IT:153 CYCLE_IT:25675 CYCLES:1285444698 TIME:7537760,cnnop_RAD_SEQUENTIAL_MAX_POOL,1,1,0,0,,50066.0,25675.0,SINGLE
2022-09-27 19:32:41,7,6.6604,1,401.37726521492004,0,2022_09_27_19_25_59_GA8-cnn_gap8.log,RATIT:65536 ITS:4614 TIME_IT:152 CYCLE_IT:25675 ACCTIME:690701 ACCCYCLES:118464599,ITS:4614 TIME_IT:152 CYCLE_IT:25675 CYCLES:118464599 TIME:690701,cnnop_RAD_SEQUENTIAL_MAX_POOL,1,1,0,0,,4614.0,25675.0,SINGLE
2022-09-27 19:33:06,8,25.5577,1,426.9349765777588,1,2022_09_27_19_25_59_GA8-cnn_gap8.log,RATIT:65536 ITS:26663 TIME_IT:152 CYCLE_IT:25675 ACCTIME:4012615 ACCCYCLES:684572673,ITS:26663 TIME_IT:152 CYCLE_IT:25675 CYCLES:684572673 TIME:4012615,cnnop_RAD_SEQUENTIAL_MAX_POOL,1,1,0,0,,26663.0,25675.0,SINGLE
2022-09-27 19:34:49,10,43.9628,1,529.2026541233063,0,2022_09_27_19_25_59_GA8-cnn_gap8.log,RATIT:65536 ITS:48209 TIME_IT:122 CYCLE_IT:25675 ACCTIME:7262218 ACCCYCLES:1237766225,ITS:48209 TIME_IT:122 CYCLE_IT:25675 CYCLES:1237766225 TIME:7262218,cnnop_RAD_SEQUENTIAL_MAX_POOL,1,1,0,0,,48209.0,25675.0,SINGLE
2022-09-27 19:43:09,11,500.103,2,1029.3056244850159,0,2022_09_27_19_25_59_GA8-cnn_gap8.log,,,cnnop_RAD_SEQUENTIAL_MAX_POOL,0,1,1,1,TIMEOUT_ERROR,,,MASKED
2022-09-27 19:43:50,12,41.4245,1,1070.7301502227783,0,2022_09_27_19_25_59_GA8-cnn_gap8.log,RATIT:65536 ITS:45163 TIME_IT:152 CYCLE_IT:25675 ACCTIME:6801870 ACCCYCLES:1159560174,ITS:45163 TIME_IT:152 CYCLE_IT:25675 CYCLES:1159560174 TIME:6801870,cnnop_RAD_SEQUENTIAL_MAX_POOL,1,1,0,0,,45163.0,25675.0,SINGLE
2022-09-27 19:52:10,13,500.1027,2,1570.8328642845154,0,2022_09_27_19_25_59_GA8-cnn_gap8.log,,,cnnop_RAD_SEQUENTIAL_MAX_POOL,0,1,1,1,TIMEOUT_ERROR,,,MASKED
2022-09-27 19:55:59,17,54.2863,1,1799.4922065734863,0,2022_09_27_19_25_59_GA8-cnn_gap8.log,RATIT:65536 ITS:60181 TIME_IT:153 CYCLE_IT:25675 ACCTIME:9069538 ACCCYCLES:1545147321,ITS:60181 TIME_IT:153 CYCLE_IT:25675 CYCLES:1545147321 TIME:9069538,cnnop_RAD_SEQUENTIAL_MAX_POOL,1,1,0,0,,60181.0,25675.0,SINGLE
2022-09-27 20:06:02,21,428.445,1,2402.5760180950165,0,2022_09_27_19_25_59_GA8-cnn_gap8.log,RATIT:65536 ITS:30675 TIME_IT:30 CYCLE_IT:25675 ACCTIME:4621200 ACCCYCLES:787580771,ITS:30675 TIME_IT:30 CYCLE_IT:25675 CYCLES:787580771 TIME:4621200,cnnop_RAD_SEQUENTIAL_MAX_POOL,1,1,0,0,,30675.0,25675.0,SQUARE
2022-09-27 20:07:01,22,58.4724,1,2461.0484080314636,1,2022_09_27_19_25_59_GA8-cnn_gap8.log,RATIT:65536 ITS:64807 TIME_IT:153 CYCLE_IT:25675 ACCTIME:9756695 ACCCYCLES:1663919874,ITS:64807 TIME_IT:153 CYCLE_IT:25675 CYCLES:1663919874 TIME:9756695,cnnop_RAD_SEQUENTIAL_MAX_POOL,1,1,0,0,,64807.0,25675.0,LINE
2022-09-27 20:07:09,23,8.4189,1,2469.467303752899,2,2022_09_27_19_25_59_GA8-cnn_gap8.log,RATIT:65536 ITS:7460 TIME_IT:153 CYCLE_IT:25675 ACCTIME:1123748 ACCCYCLES:191535645,ITS:7460 TIME_IT:153 CYCLE_IT:25675 CYCLES:191535645 TIME:1123748,cnnop_RAD_SEQUENTIAL_MAX_POOL,1,1,0,0,,7460.0,25675.0,RANDOM
2022-09-27 20:22:19,31,500.01,2,3379.0733370780945,0,2022_09_27_19_25_59_GA8-cnn_gap8.log,,,cnnop_RAD_SEQUENTIAL_MAX_POOL,0,1,1,1,TIMEOUT_ERROR,,,MASKED
2022-09-27 20:27:15,37,5.3556,1,3674.9786264896393,0,2022_09_27_19_25_59_GA8-cnn_gap8.log,RATIT:65536 ITS:2981 TIME_IT:152 CYCLE_IT:25675 ACCTIME:448796 ACCCYCLES:76537323,ITS:2981 TIME_IT:152 CYCLE_IT:25675 CYCLES:76537323 TIME:448796,cnnop_RAD_SEQUENTIAL_MAX_POOL,1,1,0,0,,2981.0,25675.0,SINGLE
2022-09-27 20:29:54,40,42.3316,1,3834.293967485428,0,2022_09_27_19_25_59_GA8-cnn_gap8.log,RATIT:65536 ITS:46186 TIME_IT:153 CYCLE_IT:25675 ACCTIME:6958848 ACCCYCLES:1185825697,ITS:46186 TIME_IT:153 CYCLE_IT:25675 CYCLES:1185825697 TIME:6958848,cnnop_RAD_SEQUENTIAL_MAX_POOL,1,1,0,0,,46186.0,25675.0,SINGLE
2022-09-27 20:34:16,45,29.2117,1,4096.6937000751495,0,2022_09_27_19_25_59_GA8-cnn_gap8.log,RATIT:65536 ITS:30871 TIME_IT:152 CYCLE_IT:25675 ACCTIME:4648540 ACCCYCLES:792613075,ITS:30871 TIME_IT:152 CYCLE_IT:25675 CYCLES:792613075 TIME:4648540,cnnop_RAD_SEQUENTIAL_MAX_POOL,1,1,0,0,,30871.0,25675.0,SINGLE
2022-09-27 20:34:57,46,40.4794,1,4137.173135995865,1,2022_09_27_19_25_59_GA8-cnn_gap8.log,RATIT:65536 ITS:44025 TIME_IT:152 CYCLE_IT:25675 ACCTIME:6626598 ACCCYCLES:1130342022,ITS:44025 TIME_IT:152 CYCLE_IT:25675 CYCLES:1130342022 TIME:6626598,cnnop_RAD_SEQUENTIAL_MAX_POOL,1,1,0,0,,44025.0,25675.0,SINGLE
2022-09-27 20:36:17,48,21.9213,1,4217.6271023750305,0,2022_09_27_19_25_59_GA8-cnn_gap8.log,RATIT:65536 ITS:22394 TIME_IT:153 CYCLE_IT:25675 ACCTIME:3371702 ACCCYCLES:574966096,ITS:22394 TIME_IT:153 CYCLE_IT:25675 CYCLES:574966096 TIME:3371702,cnnop_RAD_SEQUENTIAL_MAX_POOL,1,1,0,0,,22394.0,25675.0,SINGLE
2022-09-27 20:39:22,52,9.5752,1,4402.724843263626,0,2022_09_27_19_25_59_GA8-cnn_gap8.log,RATIT:65536 ITS:7955 TIME_IT:152 CYCLE_IT:25675 ACCTIME:1197419 ACCCYCLES:204244772,ITS:7955 TIME_IT:152 CYCLE_IT:25675 CYCLES:204244772 TIME:1197419,cnnop_RAD_SEQUENTIAL_MAX_POOL,1,1,0,0,,7955.0,25675.0,SINGLE
2022-09-27 20:41:19,54,57.5053,1,4518.770376205444,0,2022_09_27_19_25_59_GA8-cnn_gap8.log,RATIT:65536 ITS:63931 TIME_IT:153 CYCLE_IT:25675 ACCTIME:9624826 ACCCYCLES:1641428574,ITS:63931 TIME_IT:153 CYCLE_IT:25675 CYCLES:1641428574 TIME:9624826,cnnop_RAD_SEQUENTIAL_MAX_POOL,1,1,0,0,,63931.0,25675.0,SINGLE
2022-09-27 20:42:14,55,54.9688,2,4573.739135026932,0,2022_09_27_19_25_59_GA8-cnn_gap8.log,,,cnnop_RAD_SEQUENTIAL_MAX_POOL,0,1,1,1,Reached illegal instruction,,,MASKED
2022-09-27 20:44:38,58,27.4776,1,4718.078929424286,0,2022_09_27_19_25_59_GA8-cnn_gap8.log,RATIT:65536 ITS:28869 TIME_IT:153 CYCLE_IT:25675 ACCTIME:4345142 ACCCYCLES:741211721,ITS:28869 TIME_IT:153 CYCLE_IT:25675 CYCLES:741211721 TIME:4345142,cnnop_RAD_SEQUENTIAL_MAX_POOL,1,1,0,0,,28869.0,25675.0,SINGLE
2022-09-27 20:45:05,59,27.4718,1,4745.550757408142,1,2022_09_27_19_25_59_GA8-cnn_gap8.log,RATIT:65536 ITS:28875 TIME_IT:153 CYCLE_IT:25675 ACCTIME:4348888 ACCCYCLES:741365772,ITS:28875 TIME_IT:153 CYCLE_IT:25675 CYCLES:741365772 TIME:4348888,cnnop_RAD_SEQUENTIAL_MAX_POOL,1,1,0,0,,28875.0,25675.0,SINGLE
2022-09-27 20:49:15,64,15.1672,1,4994.781606674194,0,2022_09_27_19_25_59_GA8-cnn_gap8.log,RATIT:65536 ITS:14506 TIME_IT:152 CYCLE_IT:25675 ACCTIME:2183936 ACCCYCLES:372441699,ITS:14506 TIME_IT:152 CYCLE_IT:25675 CYCLES:372441699 TIME:2183936,cnnop_RAD_SEQUENTIAL_MAX_POOL,1,1,0,0,,14506.0,25675.0,SINGLE
2022-09-27 20:49:55,65,40.2279,1,5035.009526729584,1,2022_09_27_19_25_59_GA8-cnn_gap8.log,RATIT:65536 ITS:43720 TIME_IT:153 CYCLE_IT:25675 ACCTIME:6583778 ACCCYCLES:1122511147,ITS:43720 TIME_IT:153 CYCLE_IT:25675 CYCLES:1122511147 TIME:6583778,cnnop_RAD_SEQUENTIAL_MAX_POOL,1,1,0,0,,43720.0,25675.0,SINGLE
2022-09-27 20:59:14,67,500.1024,2,5593.634097576141,0,2022_09_27_19_25_59_GA8-cnn_gap8.log,,,cnnop_RAD_SEQUENTIAL_MAX_POOL,0,1,1,1,TIMEOUT_ERROR,,,MASKED
2022-09-27 21:04:11,73,4.8582,2,5891.092887163162,0,2022_09_27_19_25_59_GA8-cnn_gap8.log,,,cnnop_RAD_SEQUENTIAL_MAX_POOL,0,1,1,1,Reached illegal instruction,,,MASKED
2022-09-27 21:54:08,4,19.9044,1,205.01385474205017,0,2022_09_27_21_50_43_GA8-cnn_gap8.log,RATIT:131072 ITS:50970 TIME_IT:336 CYCLE_IT:57641 ACCTIME:17038314 ACCCYCLES:-1357005366,ITS:50970 TIME_IT:336 CYCLE_IT:57641 CYCLES:-1357005366 TIME:17038314,cnnop_RAD_SEQUENTIAL_LINEAR,0,1,0,0,,50970.0,57641.0,MASKED
2022-09-27 21:56:00,7,18.6867,1,316.7246277332306,0,2022_09_27_21_50_43_GA8-cnn_gap8.log,RATIT:131072 ITS:47265 TIME_IT:335 CYCLE_IT:57641 ACCTIME:15798434 ACCCYCLES:-1570565269,ITS:47265 TIME_IT:335 CYCLE_IT:57641 CYCLES:-1570565269 TIME:15798434,cnnop_RAD_SEQUENTIAL_LINEAR,1,1,0,0,,47265.0,57641.0,SINGLE
2022-09-27 21:56:07,8,6.75,1,323.4746515750885,1,2022_09_27_21_50_43_GA8-cnn_gap8.log,RATIT:131072 ITS:11911 TIME_IT:335 CYCLE_IT:57641 ACCTIME:3981296 ACCCYCLES:686562113,ITS:11911 TIME_IT:335 CYCLE_IT:57641 CYCLES:686562113 TIME:3981296,cnnop_RAD_SEQUENTIAL_LINEAR,1,1,0,0,,11911.0,57641.0,SINGLE
2022-09-27 21:56:20,9,12.9208,1,336.3954870700836,2,2022_09_27_21_50_43_GA8-cnn_gap8.log,RATIT:131072 ITS:30108 TIME_IT:336 CYCLE_IT:57641 ACCTIME:10064856 ACCCYCLES:1735455390,ITS:30108 TIME_IT:336 CYCLE_IT:57641 CYCLES:1735455390 TIME:10064856,cnnop_RAD_SEQUENTIAL_LINEAR,1,1,0,0,,30108.0,57641.0,SINGLE
2022-09-27 21:56:25,10,5.3492,1,341.7446942329407,3,2022_09_27_21_50_43_GA8-cnn_gap8.log,RATIT:131072 ITS:7679 TIME_IT:336 CYCLE_IT:57641 ACCTIME:2567023 ACCCYCLES:442625400,ITS:7679 TIME_IT:336 CYCLE_IT:57641 CYCLES:442625400 TIME:2567023,cnnop_RAD_SEQUENTIAL_LINEAR,1,1,0,0,,7679.0,57641.0,SINGLE
2022-09-27 22:05:32,12,500.0886,2,888.3391814231873,0,2022_09_27_21_50_43_GA8-cnn_gap8.log,,,cnnop_RAD_SEQUENTIAL_LINEAR,0,1,1,1,TIMEOUT_ERROR,,,MASKED
2022-09-27 22:06:25,14,7.1685,1,942.0726037025452,0,2022_09_27_21_50_43_GA8-cnn_gap8.log,RATIT:131072 ITS:13151 TIME_IT:336 CYCLE_IT:57641 ACCTIME:4396048 ACCCYCLES:758036951,ITS:13151 TIME_IT:336 CYCLE_IT:57641 CYCLES:758036951 TIME:4396048,cnnop_RAD_SEQUENTIAL_LINEAR,1,1,0,0,,13151.0,57641.0,SINGLE
2022-09-27 22:07:33,16,21.2421,1,1009.8848106861115,0,2022_09_27_21_50_43_GA8-cnn_gap8.log,RATIT:131072 ITS:54855 TIME_IT:336 CYCLE_IT:57641 ACCTIME:18336024 ACCCYCLES:-1133070082,ITS:54855 TIME_IT:336 CYCLE_IT:57641 CYCLES:-1133070082 TIME:18336024,cnnop_RAD_SEQUENTIAL_LINEAR,1,1,0,0,,54855.0,57641.0,SINGLE
2022-09-27 22:10:38,20,46.3151,1,1194.8973965644836,0,2022_09_27_21_50_43_GA8-cnn_gap8.log,RATIT:131072 ITS:129104 TIME_IT:335 CYCLE_IT:57641 ACCTIME:43155075 ACCCYCLES:-1148250768,ITS:129104 TIME_IT:335 CYCLE_IT:57641 CYCLES:-1148250768 TIME:43155075,cnnop_RAD_SEQUENTIAL_LINEAR,1,1,0,0,,129104.0,57641.0,SINGLE
2022-09-27 22:13:06,24,7.8763,1,1342.3011274337769,0,2022_09_27_21_50_43_GA8-cnn_gap8.log,RATIT:131072 ITS:15236 TIME_IT:335 CYCLE_IT:57641 ACCTIME:5093129 ACCCYCLES:878218435,ITS:15236 TIME_IT:335 CYCLE_IT:57641 CYCLES:878218435 TIME:5093129,cnnop_RAD_SEQUENTIAL_LINEAR,1,1,0,0,,15236.0,57641.0,SINGLE
2022-09-27 22:15:43,28,17.9018,1,1499.7463111877441,0,2022_09_27_21_50_43_GA8-cnn_gap8.log,RATIT:131072 ITS:44786 TIME_IT:335 CYCLE_IT:57641 ACCTIME:14971015 ACCCYCLES:-1713457309,ITS:44786 TIME_IT:335 CYCLE_IT:57641 CYCLES:-1713457309 TIME:14971015,cnnop_RAD_SEQUENTIAL_LINEAR,1,1,0,0,,44786.0,57641.0,SINGLE
2022-09-27 22:15:50,29,6.4618,1,1506.2080631256104,1,2022_09_27_21_50_43_GA8-cnn_gap8.log,RATIT:131072 ITS:10921 TIME_IT:336 CYCLE_IT:57641 ACCTIME:3650374 ACCCYCLES:629497520,ITS:10921 TIME_IT:336 CYCLE_IT:57641 CYCLES:629497520 TIME:3650374,cnnop_RAD_SEQUENTIAL_LINEAR,1,1,0,0,,10921.0,57641.0,SINGLE
2022-09-27 22:17:32,32,9.1946,1,1608.4233219623566,0,2022_09_27_21_50_43_GA8-cnn_gap8.log,RATIT:131072 ITS:21897 TIME_IT:335 CYCLE_IT:57641 ACCTIME:7319493 ACCCYCLES:1262165138,ITS:21897 TIME_IT:335 CYCLE_IT:57641 CYCLES:1262165138 TIME:7319493,cnnop_RAD_SEQUENTIAL_LINEAR,1,1,0,0,,21897.0,57641.0,SINGLE
2022-09-27 22:24:20,41,37.11,1,2016.6935603618622,0,2022_09_27_21_50_43_GA8-cnn_gap8.log,RATIT:131072 ITS:101759 TIME_IT:305 CYCLE_IT:57641 ACCTIME:34015178 ACCCYCLES:1570523380,ITS:101759 TIME_IT:305 CYCLE_IT:57641 CYCLES:1570523380 TIME:34015178,cnnop_RAD_SEQUENTIAL_LINEAR,1,1,0,0,,101759.0,57641.0,SINGLE
2022-09-27 22:32:40,42,500.0244,2,2516.7179114818573,0,2022_09_27_21_50_43_GA8-cnn_gap8.log,,,cnnop_RAD_SEQUENTIAL_LINEAR,0,1,1,1,TIMEOUT_ERROR,,,MASKED
2022-09-27 22:41:47,44,500.0929,2,3063.327285528183,0,2022_09_27_21_50_43_GA8-cnn_gap8.log,,,cnnop_RAD_SEQUENTIAL_LINEAR,0,1,1,1,TIMEOUT_ERROR,,,MASKED
2022-09-27 22:43:44,47,24.563,1,3180.912113428116,0,2022_09_27_21_50_43_GA8-cnn_gap8.log,RATIT:131072 ITS:64522 TIME_IT:336 CYCLE_IT:57641 ACCTIME:21567962 ACCCYCLES:-575854533,ITS:64522 TIME_IT:336 CYCLE_IT:57641 CYCLES:-575854533 TIME:21567962,cnnop_RAD_SEQUENTIAL_LINEAR,1,1,0,0,,64522.0,57641.0,SINGLE
2022-09-27 22:43:50,48,5.1392,1,3186.051324367523,1,2022_09_27_21_50_43_GA8-cnn_gap8.log,RATIT:131072 ITS:7007 TIME_IT:305 CYCLE_IT:57641 ACCTIME:2342070 ACCCYCLES:403890646,ITS:7007 TIME_IT:305 CYCLE_IT:57641 CYCLES:403890646 TIME:2342070,cnnop_RAD_SEQUENTIAL_LINEAR,1,1,0,0,,7007.0,57641.0,SINGLE
2022-09-27 22:44:04,49,14.2517,1,3200.3030235767365,2,2022_09_27_21_50_43_GA8-cnn_gap8.log,RATIT:131072 ITS:36807 TIME_IT:336 CYCLE_IT:57641 ACCTIME:12303559 ACCCYCLES:2121592446,ITS:36807 TIME_IT:336 CYCLE_IT:57641 CYCLES:2121592446 TIME:12303559,cnnop_RAD_SEQUENTIAL_LINEAR,1,1,0,0,,36807.0,57641.0,SINGLE
2022-09-27 22:49:38,57,8.0836,1,3534.0677332878113,0,2022_09_27_21_50_43_GA8-cnn_gap8.log,RATIT:131072 ITS:15830 TIME_IT:336 CYCLE_IT:57641 ACCTIME:5291818 ACCCYCLES:912457190,ITS:15830 TIME_IT:336 CYCLE_IT:57641 CYCLES:912457190 TIME:5291818,cnnop_RAD_SEQUENTIAL_LINEAR,1,1,0,0,,15830.0,57641.0,SINGLE
2022-09-27 22:54:57,64,40.8474,1,3853.222735643387,0,2022_09_27_21_50_43_GA8-cnn_gap8.log,RATIT:131072 ITS:112852 TIME_IT:335 CYCLE_IT:57641 ACCTIME:37721470 ACCCYCLES:-2085032302,ITS:112852 TIME_IT:335 CYCLE_IT:57641 CYCLES:-2085032302 TIME:37721470,cnnop_RAD_SEQUENTIAL_LINEAR,1,1,0,0,,112852.0,57641.0,SINGLE
2022-09-27 22:55:03,65,6.1602,1,3859.382928609848,1,2022_09_27_21_50_43_GA8-cnn_gap8.log,RATIT:131072 ITS:9952 TIME_IT:335 CYCLE_IT:57641 ACCTIME:3326595 ACCCYCLES:573643393,ITS:9952 TIME_IT:335 CYCLE_IT:57641 CYCLES:573643393 TIME:3326595,cnnop_RAD_SEQUENTIAL_LINEAR,1,1,0,0,,9952.0,57641.0,SINGLE
2022-09-27 22:55:06,66,2.8086,1,3862.1915521621704,2,2022_09_27_21_50_43_GA8-cnn_gap8.log,RATIT:131072 ITS:1 TIME_IT:335 CYCLE_IT:57800 ACCTIME:335 ACCCYCLES:57800,ITS:1 TIME_IT:335 CYCLE_IT:57800 CYCLES:57800 TIME:335,cnnop_RAD_SEQUENTIAL_LINEAR,1,1,0,0,,1.0,57800.0,SINGLE
2022-09-27 22:56:38,68,45.3916,1,3954.0903990268707,0,2022_09_27_21_50_43_GA8-cnn_gap8.log,RATIT:131072 ITS:126646 TIME_IT:336 CYCLE_IT:57641 ACCTIME:42335467 ACCCYCLES:-1289932343,ITS:126646 TIME_IT:336 CYCLE_IT:57641 CYCLES:-1289932343 TIME:42335467,cnnop_RAD_SEQUENTIAL_LINEAR,1,1,0,0,,126646.0,57641.0,SINGLE
2022-09-27 22:59:13,72,15.571,1,4109.338182449341,0,2022_09_27_21_50_43_GA8-cnn_gap8.log,RATIT:131072 ITS:37853 TIME_IT:336 CYCLE_IT:57641 ACCTIME:12652967 ACCCYCLES:-2113082362,ITS:37853 TIME_IT:336 CYCLE_IT:57641 CYCLES:-2113082362 TIME:12652967,cnnop_RAD_SEQUENTIAL_LINEAR,1,1,0,0,,37853.0,57641.0,SINGLE
2022-09-27 23:03:14,78,9.506,1,4350.491399049759,0,2022_09_27_21_50_43_GA8-cnn_gap8.log,RATIT:131072 ITS:19926 TIME_IT:336 CYCLE_IT:57641 ACCTIME:6659984 ACCCYCLES:1148554727,ITS:19926 TIME_IT:336 CYCLE_IT:57641 CYCLES:1148554727 TIME:6659984,cnnop_RAD_SEQUENTIAL_LINEAR,1,1,0,0,,19926.0,57641.0,SINGLE
2022-09-27 23:06:54,83,33.4294,1,4569.92604637146,0,2022_09_27_21_50_43_GA8-cnn_gap8.log,RATIT:131072 ITS:91069 TIME_IT:335 CYCLE_IT:57641 ACCTIME:30441707 ACCCYCLES:954341095,ITS:91069 TIME_IT:335 CYCLE_IT:57641 CYCLES:954341095 TIME:30441707,cnnop_RAD_SEQUENTIAL_LINEAR,1,1,0,0,,91069.0,57641.0,SINGLE
2022-09-27 23:10:51,89,4.7428,1,4807.308208465576,0,2022_09_27_21_50_43_GA8-cnn_gap8.log,RATIT:131072 ITS:5898 TIME_IT:336 CYCLE_IT:57641 ACCTIME:1971678 ACCCYCLES:339966777,ITS:5898 TIME_IT:336 CYCLE_IT:57641 CYCLES:339966777 TIME:1971678,cnnop_RAD_SEQUENTIAL_LINEAR,1,1,0,0,,5898.0,57641.0,SINGLE
2022-09-27 23:10:54,90,3.4374,1,4810.745616912842,1,2022_09_27_21_50_43_GA8-cnn_gap8.log,RATIT:131072 ITS:1809 TIME_IT:336 CYCLE_IT:57641 ACCTIME:604679 ACCCYCLES:104272726,ITS:1809 TIME_IT:336 CYCLE_IT:57641 CYCLES:104272726 TIME:604679,cnnop_RAD_SEQUENTIAL_LINEAR,1,1,0,0,,1809.0,57641.0,SINGLE
2022-09-27 23:20:48,93,500.1032,2,5403.905854463577,0,2022_09_27_21_50_43_GA8-cnn_gap8.log,,,cnnop_RAD_SEQUENTIAL_LINEAR,0,1,1,1,TIMEOUT_ERROR,,,MASKED
2022-09-27 23:22:05,95,30.4227,1,5480.814821243286,0,2022_09_27_21_50_43_GA8-cnn_gap8.log,RATIT:131072 ITS:82197 TIME_IT:336 CYCLE_IT:57641 ACCTIME:27475791 ACCCYCLES:442950142,ITS:82197 TIME_IT:336 CYCLE_IT:57641 CYCLES:442950142 TIME:27475791,cnnop_RAD_SEQUENTIAL_LINEAR,1,1,0,0,,82197.0,57641.0,SINGLE
2022-09-27 23:22:30,96,24.964,1,5505.778788566589,1,2022_09_27_21_50_43_GA8-cnn_gap8.log,RATIT:131072 ITS:65990 TIME_IT:335 CYCLE_IT:57641 ACCTIME:22058644 ACCCYCLES:-491237543,ITS:65990 TIME_IT:335 CYCLE_IT:57641 CYCLES:-491237543 TIME:22058644,cnnop_RAD_SEQUENTIAL_LINEAR,1,1,0,0,,65990.0,57641.0,SINGLE
2022-09-27 23:31:36,98,500.0548,2,6052.334726810455,0,2022_09_27_21_50_43_GA8-cnn_gap8.log,,,cnnop_RAD_SEQUENTIAL_LINEAR,0,1,1,1,TIMEOUT_ERROR,,,MASKED
2022-09-27 23:39:56,99,500.0436,2,6552.378352642059,1,2022_09_27_21_50_43_GA8-cnn_gap8.log,,,cnnop_RAD_SEQUENTIAL_LINEAR,0,1,1,1,TIMEOUT_ERROR,,,MASKED
2022-09-27 23:40:22,100,25.8164,1,6578.194764375687,0,2022_09_27_21_50_43_GA8-cnn_gap8.log,RATIT:131072 ITS:67925 TIME_IT:336 CYCLE_IT:57641 ACCTIME:22704881 ACCCYCLES:-379702210,ITS:67925 TIME_IT:336 CYCLE_IT:57641 CYCLES:-379702210 TIME:22704881,cnnop_RAD_SEQUENTIAL_LINEAR,1,1,0,0,,67925.0,57641.0,RANDOM
2022-09-27 23:42:07,103,11.9115,1,6683.176160812378,0,2022_09_27_21_50_43_GA8-cnn_gap8.log,RATIT:131072 ITS:26992 TIME_IT:335 CYCLE_IT:57641 ACCTIME:9021562 ACCCYCLES:1555846034,ITS:26992 TIME_IT:335 CYCLE_IT:57641 CYCLES:1555846034 TIME:9021562,cnnop_RAD_SEQUENTIAL_LINEAR,1,1,0,0,,26992.0,57641.0,SINGLE
2022-09-27 23:44:24,106,43.983,1,6820.168396234512,0,2022_09_27_21_50_43_GA8-cnn_gap8.log,RATIT:131072 ITS:122393 TIME_IT:336 CYCLE_IT:57641 ACCTIME:40912005 ACCCYCLES:-1535079519,ITS:122393 TIME_IT:336 CYCLE_IT:57641 CYCLES:-1535079519 TIME:40912005,cnnop_RAD_SEQUENTIAL_LINEAR,1,1,0,0,,122393.0,57641.0,SINGLE
2022-09-27 23:45:18,108,7.0643,1,6873.778147697449,0,2022_09_27_21_50_43_GA8-cnn_gap8.log,RATIT:131072 ITS:12743 TIME_IT:335 CYCLE_IT:57641 ACCTIME:4259429 ACCCYCLES:734519426,ITS:12743 TIME_IT:335 CYCLE_IT:57641 CYCLES:734519426 TIME:4259429,cnnop_RAD_SEQUENTIAL_LINEAR,1,1,0,0,,12743.0,57641.0,SINGLE
2022-09-27 23:51:25,116,41.5569,1,7240.913746356964,0,2022_09_27_21_50_43_GA8-cnn_gap8.log,RATIT:131072 ITS:115195 TIME_IT:336 CYCLE_IT:57641 ACCTIME:38505554 ACCCYCLES:-1949979437,ITS:115195 TIME_IT:336 CYCLE_IT:57641 CYCLES:-1949979437 TIME:38505554,cnnop_RAD_SEQUENTIAL_LINEAR,1,1,0,0,,115195.0,57641.0,SINGLE
2022-09-27 23:52:55,118,43.8777,1,7331.321144580841,0,2022_09_27_21_50_43_GA8-cnn_gap8.log,RATIT:131072 ITS:122024 TIME_IT:335 CYCLE_IT:57641 ACCTIME:40790203 ACCCYCLES:-1556349046,ITS:122024 TIME_IT:335 CYCLE_IT:57641 CYCLES:-1556349046 TIME:40790203,cnnop_RAD_SEQUENTIAL_LINEAR,1,1,0,0,,122024.0,57641.0,SINGLE
2022-09-27 23:55:13,121,45.0874,1,7469.410416126251,0,2022_09_27_21_50_43_GA8-cnn_gap8.log,RATIT:131072 ITS:125611 TIME_IT:305 CYCLE_IT:57641 ACCTIME:41986532 ACCCYCLES:-1349590782,ITS:125611 TIME_IT:305 CYCLE_IT:57641 CYCLES:-1349590782 TIME:41986532,cnnop_RAD_SEQUENTIAL_LINEAR,1,1,0,0,,125611.0,57641.0,SINGLE
2022-09-27 23:55:35,122,21.1237,1,7490.534067392349,1,2022_09_27_21_50_43_GA8-cnn_gap8.log,RATIT:131072 ITS:54372 TIME_IT:336 CYCLE_IT:57641 ACCTIME:18174946 ACCCYCLES:-1160910681,ITS:54372 TIME_IT:336 CYCLE_IT:57641 CYCLES:-1160910681 TIME:18174946,cnnop_RAD_SEQUENTIAL_LINEAR,1,1,0,0,,54372.0,57641.0,SINGLE
2022-09-27 23:56:03,123,28.7094,1,7519.243493080139,2,2022_09_27_21_50_43_GA8-cnn_gap8.log,RATIT:131072 ITS:77069 TIME_IT:336 CYCLE_IT:57641 ACCTIME:25761983 ACCCYCLES:147367093,ITS:77069 TIME_IT:336 CYCLE_IT:57641 CYCLES:147367093 TIME:25761983,cnnop_RAD_SEQUENTIAL_LINEAR,1,1,0,0,,77069.0,57641.0,SINGLE
2022-09-27 23:56:25,124,22.1285,1,7541.372018098831,3,2022_09_27_21_50_43_GA8-cnn_gap8.log,RATIT:131072 ITS:57412 TIME_IT:335 CYCLE_IT:57641 ACCTIME:19191423 ACCCYCLES:-985682045,ITS:57412 TIME_IT:335 CYCLE_IT:57641 CYCLES:-985682045 TIME:19191423,cnnop_RAD_SEQUENTIAL_LINEAR,1,1,0,0,,57412.0,57641.0,SINGLE
2022-09-27 13:53:20,7,300.1026,2,657.361358165741,0,2022_09_27_13_42_23_GA8-cnn_gap8.log,,,cnnop_RAD_PARALLEL_VECT_MAX_POOL,0,1,1,1,TIMEOUT_ERROR,,,MASKED
2022-09-27 13:53:24,8,3.6225,1,660.9838309288025,0,2022_09_27_13_42_23_GA8-cnn_gap8.log,RATIT:65536 ITS:1108 TIME_IT:30 CYCLE_IT:3805 ACCTIME:30119 ACCCYCLES:4207509,ITS:1108 TIME_IT:30 CYCLE_IT:3805 CYCLES:4207509 TIME:30119,cnnop_RAD_PARALLEL_VECT_MAX_POOL,1,1,0,0,,1108.0,3805.0,SINGLE
2022-09-27 13:53:43,9,18.7171,1,679.7008936405182,1,2022_09_27_13_42_23_GA8-cnn_gap8.log,RATIT:65536 ITS:21362 TIME_IT:31 CYCLE_IT:3812 ACCTIME:573589 ACCCYCLES:81117022,ITS:21362 TIME_IT:31 CYCLE_IT:3812 CYCLES:81117022 TIME:573589,cnnop_RAD_PARALLEL_VECT_MAX_POOL,1,1,0,0,,21362.0,3812.0,RANDOM
2022-09-27 13:59:34,11,300.1024,2,1030.805742740631,0,2022_09_27_13_42_23_GA8-cnn_gap8.log,,,cnnop_RAD_PARALLEL_VECT_MAX_POOL,0,1,1,1,TIMEOUT_ERROR,,,MASKED
2022-09-27 14:04:34,12,300.0101,2,1330.8158345222473,1,2022_09_27_13_42_23_GA8-cnn_gap8.log,,,cnnop_RAD_PARALLEL_VECT_MAX_POOL,0,1,1,1,TIMEOUT_ERROR,,,MASKED
2022-09-27 14:06:27,15,11.2082,1,1444.0349407196045,0,2022_09_27_13_42_23_GA8-cnn_gap8.log,RATIT:65536 ITS:11377 TIME_IT:30 CYCLE_IT:3791 ACCTIME:304956 ACCCYCLES:43201480,ITS:11377 TIME_IT:30 CYCLE_IT:3791 CYCLES:43201480 TIME:304956,cnnop_RAD_PARALLEL_VECT_MAX_POOL,1,1,0,0,,11377.0,3791.0,SINGLE
2022-09-27 14:14:51,20,300.0724,2,1948.1585755348206,0,2022_09_27_13_42_23_GA8-cnn_gap8.log,,,cnnop_RAD_PARALLEL_VECT_MAX_POOL,0,1,1,1,TIMEOUT_ERROR,,,MASKED
2022-09-27 14:15:41,21,49.8115,1,1997.9701039791107,0,2022_09_27_13_42_23_GA8-cnn_gap8.log,RATIT:65536 ITS:63376 TIME_IT:30 CYCLE_IT:3792 ACCTIME:1703616 ACCCYCLES:240654674,ITS:63376 TIME_IT:30 CYCLE_IT:3792 CYCLES:240654674 TIME:1703616,cnnop_RAD_PARALLEL_VECT_MAX_POOL,1,1,0,0,,63376.0,3792.0,SINGLE
2022-09-27 14:26:19,34,26.8599,1,2635.925094604492,0,2022_09_27_13_42_23_GA8-cnn_gap8.log,RATIT:65536 ITS:32496 TIME_IT:30 CYCLE_IT:3835 ACCTIME:872231 ACCCYCLES:123440261,ITS:32496 TIME_IT:30 CYCLE_IT:3835 CYCLES:123440261 TIME:872231,cnnop_RAD_PARALLEL_VECT_MAX_POOL,1,1,0,0,,32496.0,3835.0,SINGLE
2022-09-27 14:26:30,35,10.8059,2,2646.731018781662,0,2022_09_27_13_42_23_GA8-cnn_gap8.log,,,cnnop_RAD_PARALLEL_VECT_MAX_POOL,0,1,1,1,Reached illegal instruction,,,MASKED
2022-09-27 14:31:30,36,300.101,2,2946.832040309906,1,2022_09_27_13_42_23_GA8-cnn_gap8.log,,,cnnop_RAD_PARALLEL_VECT_MAX_POOL,0,1,1,1,TIMEOUT_ERROR,,,MASKED
2022-09-27 14:41:36,43,300.1029,2,3553.0931413173676,0,2022_09_27_13_42_23_GA8-cnn_gap8.log,,,cnnop_RAD_PARALLEL_VECT_MAX_POOL,0,1,1,1,TIMEOUT_ERROR,,,MASKED
2022-09-27 14:44:31,47,21.9144,1,3728.177952528,0,2022_09_27_13_42_23_GA8-cnn_gap8.log,RATIT:65536 ITS:25777 TIME_IT:30 CYCLE_IT:3791 ACCTIME:691919 ACCCYCLES:97881864,ITS:25777 TIME_IT:30 CYCLE_IT:3791 CYCLES:97881864 TIME:691919,cnnop_RAD_PARALLEL_VECT_MAX_POOL,1,1,0,0,,25777.0,3791.0,SINGLE
2022-09-27 14:45:53,49,31.0029,1,3810.1904757022858,0,2022_09_27_13_42_23_GA8-cnn_gap8.log,RATIT:65536 ITS:37962 TIME_IT:30 CYCLE_IT:3812 ACCTIME:1020110 ACCCYCLES:144151373,ITS:37962 TIME_IT:30 CYCLE_IT:3812 CYCLES:144151373 TIME:1020110,cnnop_RAD_PARALLEL_VECT_MAX_POOL,1,1,0,0,,37962.0,3812.0,SINGLE
2022-09-27 14:48:53,53,26.7693,1,3990.065263271332,0,2022_09_27_13_42_23_GA8-cnn_gap8.log,RATIT:65536 ITS:32275 TIME_IT:30 CYCLE_IT:3777 ACCTIME:866274 ACCCYCLES:122556405,ITS:32275 TIME_IT:30 CYCLE_IT:3777 CYCLES:122556405 TIME:866274,cnnop_RAD_PARALLEL_VECT_MAX_POOL,1,1,0,0,,32275.0,3777.0,SINGLE
2022-09-27 14:54:30,60,30.3072,1,4326.561860561371,0,2022_09_27_13_42_23_GA8-cnn_gap8.log,RATIT:65536 ITS:37140 TIME_IT:30 CYCLE_IT:3805 ACCTIME:997339 ACCCYCLES:141030020,ITS:37140 TIME_IT:30 CYCLE_IT:3805 CYCLES:141030020 TIME:997339,cnnop_RAD_PARALLEL_VECT_MAX_POOL,1,1,0,0,,37140.0,3805.0,SINGLE
2022-09-27 14:54:56,61,25.835,1,4352.396819353104,1,2022_09_27_13_42_23_GA8-cnn_gap8.log,RATIT:65536 ITS:31050 TIME_IT:31 CYCLE_IT:3812 ACCTIME:834290 ACCCYCLES:117904779,ITS:31050 TIME_IT:31 CYCLE_IT:3812 CYCLES:117904779 TIME:834290,cnnop_RAD_PARALLEL_VECT_MAX_POOL,1,1,0,0,,31050.0,3812.0,SINGLE
2022-09-27 15:00:56,69,2.8052,1,4712.396069526672,0,2022_09_27_13_42_23_GA8-cnn_gap8.log,RATIT:65536 ITS:1 TIME_IT:30 CYCLE_IT:3960 ACCTIME:30 ACCCYCLES:3960,ITS:1 TIME_IT:30 CYCLE_IT:3960 CYCLES:3960 TIME:30,cnnop_RAD_PARALLEL_VECT_MAX_POOL,1,1,0,0,,1.0,3960.0,SINGLE
2022-09-27 15:02:11,71,24.3487,1,4787.83881688118,0,2022_09_27_13_42_23_GA8-cnn_gap8.log,RATIT:65536 ITS:29062 TIME_IT:0 CYCLE_IT:3808 ACCTIME:781738 ACCCYCLES:110355846,ITS:29062 TIME_IT:0 CYCLE_IT:3808 CYCLES:110355846 TIME:781738,cnnop_RAD_PARALLEL_VECT_MAX_POOL,1,1,0,0,,29062.0,3808.0,SINGLE
2022-09-27 15:02:36,72,25.049,1,4812.887768030167,1,2022_09_27_13_42_23_GA8-cnn_gap8.log,RATIT:65536 ITS:30048 TIME_IT:31 CYCLE_IT:3792 ACCTIME:806377 ACCCYCLES:114099942,ITS:30048 TIME_IT:31 CYCLE_IT:3792 CYCLES:114099942 TIME:806377,cnnop_RAD_PARALLEL_VECT_MAX_POOL,1,1,0,0,,30048.0,3792.0,SINGLE
2022-09-27 15:04:23,75,4.8505,1,4919.795552968979,0,2022_09_27_13_42_23_GA8-cnn_gap8.log,RATIT:65536 ITS:2798 TIME_IT:30 CYCLE_IT:3808 ACCTIME:75034 ACCCYCLES:10624873,ITS:2798 TIME_IT:30 CYCLE_IT:3808 CYCLES:10624873 TIME:75034,cnnop_RAD_PARALLEL_VECT_MAX_POOL,1,1,0,0,,2798.0,3808.0,SINGLE
2022-09-27 15:05:02,76,38.8949,1,4958.690438270569,1,2022_09_27_13_42_23_GA8-cnn_gap8.log,RATIT:65536 ITS:48623 TIME_IT:30 CYCLE_IT:3795 ACCTIME:1306443 ACCCYCLES:184633850,ITS:48623 TIME_IT:30 CYCLE_IT:3795 CYCLES:184633850 TIME:1306443,cnnop_RAD_PARALLEL_VECT_MAX_POOL,1,1,0,0,,48623.0,3795.0,SINGLE
2022-09-27 15:07:16,79,32.0103,1,5092.7896728515625,0,2022_09_27_13_42_23_GA8-cnn_gap8.log,RATIT:65536 ITS:39334 TIME_IT:31 CYCLE_IT:3808 ACCTIME:1055245 ACCCYCLES:149361213,ITS:39334 TIME_IT:31 CYCLE_IT:3808 CYCLES:149361213 TIME:1055245,cnnop_RAD_PARALLEL_VECT_MAX_POOL,1,1,0,0,,39334.0,3808.0,SINGLE
2022-09-27 15:11:02,84,21.3153,1,5318.237134695053,0,2022_09_27_13_42_23_GA8-cnn_gap8.log,RATIT:65536 ITS:24964 TIME_IT:31 CYCLE_IT:3805 ACCTIME:669436 ACCCYCLES:94794718,ITS:24964 TIME_IT:31 CYCLE_IT:3805 CYCLES:94794718 TIME:669436,cnnop_RAD_PARALLEL_VECT_MAX_POOL,1,1,0,0,,24964.0,3805.0,SINGLE
2022-09-27 15:16:14,91,5.6776,1,5630.076419591904,0,2022_09_27_13_42_23_GA8-cnn_gap8.log,RATIT:65536 ITS:3691 TIME_IT:30 CYCLE_IT:3798 ACCTIME:98822 ACCCYCLES:14002816,ITS:3691 TIME_IT:30 CYCLE_IT:3798 CYCLES:14002816 TIME:98822,cnnop_RAD_PARALLEL_VECT_MAX_POOL,1,1,0,0,,3691.0,3798.0,RANDOM
2022-09-27 15:19:56,96,18.1795,1,5852.369891643524,0,2022_09_27_13_42_23_GA8-cnn_gap8.log,RATIT:65536 ITS:20770 TIME_IT:31 CYCLE_IT:3812 ACCTIME:558091 ACCCYCLES:78869048,ITS:20770 TIME_IT:31 CYCLE_IT:3812 CYCLES:78869048 TIME:558091,cnnop_RAD_PARALLEL_VECT_MAX_POOL,1,1,0,0,,20770.0,3812.0,SINGLE
2022-09-27 15:22:50,100,20.8119,1,6026.32799077034,0,2022_09_27_13_42_23_GA8-cnn_gap8.log,RATIT:65536 ITS:24346 TIME_IT:30 CYCLE_IT:3812 ACCTIME:653832 ACCCYCLES:92448017,ITS:24346 TIME_IT:30 CYCLE_IT:3812 CYCLES:92448017 TIME:653832,cnnop_RAD_PARALLEL_VECT_MAX_POOL,1,1,0,0,,24346.0,3812.0,SINGLE
2022-09-27 15:29:32,103,300.1006,2,6428.572589159012,0,2022_09_27_13_42_23_GA8-cnn_gap8.log,,,cnnop_RAD_PARALLEL_VECT_MAX_POOL,0,1,1,1,TIMEOUT_ERROR,,,MASKED
2022-09-27 15:33:44,108,47.2888,1,6679.972080230713,0,2022_09_27_13_42_23_GA8-cnn_gap8.log,RATIT:65536 ITS:59978 TIME_IT:30 CYCLE_IT:3812 ACCTIME:1611179 ACCCYCLES:227751627,ITS:59978 TIME_IT:30 CYCLE_IT:3812 CYCLES:227751627 TIME:1611179,cnnop_RAD_PARALLEL_VECT_MAX_POOL,1,1,0,0,,59978.0,3812.0,SINGLE
2022-09-27 15:35:02,110,27.3934,1,6758.454913377762,0,2022_09_27_13_42_23_GA8-cnn_gap8.log,RATIT:65536 ITS:33181 TIME_IT:30 CYCLE_IT:3798 ACCTIME:889718 ACCCYCLES:125996720,ITS:33181 TIME_IT:30 CYCLE_IT:3798 CYCLES:125996720 TIME:889718,cnnop_RAD_PARALLEL_VECT_MAX_POOL,1,1,0,0,,33181.0,3798.0,SINGLE
2022-09-27 15:46:00,118,300.1024,2,7415.885747432709,0,2022_09_27_13_42_23_GA8-cnn_gap8.log,,,cnnop_RAD_PARALLEL_VECT_MAX_POOL,0,1,1,1,TIMEOUT_ERROR,,,MASKED
2022-09-27 15:50:39,124,24.9527,1,7695.0923640728,0,2022_09_27_13_42_23_GA8-cnn_gap8.log,RATIT:65536 ITS:29926 TIME_IT:30 CYCLE_IT:3808 ACCTIME:801898 ACCCYCLES:113636685,ITS:29926 TIME_IT:30 CYCLE_IT:3808 CYCLES:113636685 TIME:801898,cnnop_RAD_PARALLEL_VECT_MAX_POOL,1,1,0,0,,29926.0,3808.0,SINGLE
2022-09-27 15:56:30,126,300.1002,2,8046.234564304352,0,2022_09_27_13_42_23_GA8-cnn_gap8.log,,,cnnop_RAD_PARALLEL_VECT_MAX_POOL,0,1,1,1,TIMEOUT_ERROR,,,MASKED
2022-09-27 16:00:46,131,51.1247,1,8301.738783597946,0,2022_09_27_13_42_23_GA8-cnn_gap8.log,RATIT:65536 ITS:65536 TIME_IT:31 CYCLE_IT:3792 ACCTIME:1757368 ACCCYCLES:248856749,,cnnop_RAD_PARALLEL_VECT_MAX_POOL,0,0,1,0,,,,MASKED
2022-09-27 16:00:48,132,2.7992,1,8304.537934303284,1,2022_09_27_13_42_23_GA8-cnn_gap8.log,RATIT:65536 ITS:1 TIME_IT:31 CYCLE_IT:3963 ACCTIME:31 ACCCYCLES:3963,ITS:1 TIME_IT:31 CYCLE_IT:3963 CYCLES:3963 TIME:31,cnnop_RAD_PARALLEL_VECT_MAX_POOL,1,1,0,0,,1.0,3963.0,SINGLE
2022-09-27 16:00:59,133,10.2977,1,8314.835682868958,2,2022_09_27_13_42_23_GA8-cnn_gap8.log,RATIT:65536 ITS:10148 TIME_IT:31 CYCLE_IT:3805 ACCTIME:271244 ACCCYCLES:38534648,ITS:10148 TIME_IT:31 CYCLE_IT:3805 CYCLES:38534648 TIME:271244,cnnop_RAD_PARALLEL_VECT_MAX_POOL,1,1,0,0,,10148.0,3805.0,SINGLE
2022-09-27 16:05:59,134,300.0192,2,8614.854912519455,0,2022_09_27_13_42_23_GA8-cnn_gap8.log,,,cnnop_RAD_PARALLEL_VECT_MAX_POOL,0,1,1,1,TIMEOUT_ERROR,,,MASKED
2022-09-27 16:06:50,135,51.123,2,8665.977895021439,1,2022_09_27_13_42_23_GA8-cnn_gap8.log,,,cnnop_RAD_PARALLEL_VECT_MAX_POOL,0,1,1,1,UNICODE_ERROR,,,MASKED
2022-09-27 16:13:05,143,17.6879,1,9040.73134970665,0,2022_09_27_13_42_23_GA8-cnn_gap8.log,RATIT:65536 ITS:19982 TIME_IT:30 CYCLE_IT:3808 ACCTIME:537393 ACCCYCLES:75876829,ITS:19982 TIME_IT:30 CYCLE_IT:3808 CYCLES:75876829 TIME:537393,cnnop_RAD_PARALLEL_VECT_MAX_POOL,1,1,0,0,,19982.0,3808.0,SINGLE
2022-09-27 16:14:50,146,2.8145,1,9145.826216936111,0,2022_09_27_13_42_23_GA8-cnn_gap8.log,RATIT:65536 ITS:1 TIME_IT:31 CYCLE_IT:3963 ACCTIME:31 ACCCYCLES:3963,ITS:1 TIME_IT:31 CYCLE_IT:3963 CYCLES:3963 TIME:31,cnnop_RAD_PARALLEL_VECT_MAX_POOL,1,1,0,0,,1.0,3963.0,SINGLE
2022-09-27 16:21:32,149,300.101,2,9548.17802286148,0,2022_09_27_13_42_23_GA8-cnn_gap8.log,,,cnnop_RAD_PARALLEL_VECT_MAX_POOL,0,1,1,1,TIMEOUT_ERROR,,,MASKED
2022-09-27 16:28:14,152,300.1036,2,9950.519209861755,0,2022_09_27_13_42_23_GA8-cnn_gap8.log,,,cnnop_RAD_PARALLEL_VECT_MAX_POOL,0,1,1,1,TIMEOUT_ERROR,,,MASKED
2022-09-27 16:28:33,153,18.194,1,9968.713187932968,0,2022_09_27_13_42_23_GA8-cnn_gap8.log,RATIT:65536 ITS:20676 TIME_IT:31 CYCLE_IT:3805 ACCTIME:555651 ACCCYCLES:78512106,ITS:20676 TIME_IT:31 CYCLE_IT:3805 CYCLES:78512106 TIME:555651,cnnop_RAD_PARALLEL_VECT_MAX_POOL,1,1,0,0,,20676.0,3805.0,SINGLE
2022-09-27 16:35:15,156,300.0102,2,10370.993239164352,0,2022_09_27_13_42_23_GA8-cnn_gap8.log,,,cnnop_RAD_PARALLEL_VECT_MAX_POOL,0,1,1,1,TIMEOUT_ERROR,,,MASKED
2022-09-27 16:41:06,158,300.1032,2,10722.21621966362,0,2022_09_27_13_42_23_GA8-cnn_gap8.log,,,cnnop_RAD_PARALLEL_VECT_MAX_POOL,0,1,1,1,TIMEOUT_ERROR,,,MASKED
2022-09-27 16:45:53,164,30.8228,1,11008.648285865784,0,2022_09_27_13_42_23_GA8-cnn_gap8.log,RATIT:65536 ITS:37647 TIME_IT:30 CYCLE_IT:3795 ACCTIME:1011222 ACCCYCLES:142955248,ITS:37647 TIME_IT:30 CYCLE_IT:3795 CYCLES:142955248 TIME:1011222,cnnop_RAD_PARALLEL_VECT_MAX_POOL,1,1,0,0,,37647.0,3795.0,SINGLE
2022-09-27 16:55:59,171,300.0922,2,11614.676808357239,0,2022_09_27_13_42_23_GA8-cnn_gap8.log,,,cnnop_RAD_PARALLEL_VECT_MAX_POOL,0,1,1,1,TIMEOUT_ERROR,,,MASKED
2022-09-27 17:00:35,177,21.8211,1,11891.227214574814,0,2022_09_27_13_42_23_GA8-cnn_gap8.log,RATIT:65536 ITS:25642 TIME_IT:31 CYCLE_IT:3812 ACCTIME:689341 ACCCYCLES:97369249,ITS:25642 TIME_IT:31 CYCLE_IT:3812 CYCLES:97369249 TIME:689341,cnnop_RAD_PARALLEL_VECT_MAX_POOL,1,1,0,0,,25642.0,3812.0,SINGLE
2022-09-27 17:06:27,179,300.0242,2,12242.367022514343,0,2022_09_27_13_42_23_GA8-cnn_gap8.log,,,cnnop_RAD_PARALLEL_VECT_MAX_POOL,0,1,1,1,TIMEOUT_ERROR,,,MASKED
2022-09-27 17:06:53,180,26.6363,1,12269.003343582153,0,2022_09_27_13_42_23_GA8-cnn_gap8.log,RATIT:65536 ITS:32072 TIME_IT:30 CYCLE_IT:3792 ACCTIME:859185 ACCCYCLES:121785572,ITS:32072 TIME_IT:30 CYCLE_IT:3792 CYCLES:121785572 TIME:859185,cnnop_RAD_PARALLEL_VECT_MAX_POOL,1,1,0,0,,32072.0,3792.0,SINGLE
2022-09-27 17:08:02,182,17.8016,2,12337.948688268661,0,2022_09_27_13_42_23_GA8-cnn_gap8.log,,,cnnop_RAD_PARALLEL_VECT_MAX_POOL,0,1,1,1,Reached illegal instruction,,,MASKED
2022-09-27 17:08:08,183,5.5671,2,12343.515747785568,1,2022_09_27_13_42_23_GA8-cnn_gap8.log,,,cnnop_RAD_PARALLEL_VECT_MAX_POOL,0,1,1,1,Reached illegal instruction,,,MASKED
2022-09-27 17:13:08,184,300.0507,2,12643.566411018372,2,2022_09_27_13_42_23_GA8-cnn_gap8.log,,,cnnop_RAD_PARALLEL_VECT_MAX_POOL,0,1,1,1,TIMEOUT_ERROR,,,MASKED
2022-09-27 17:13:29,185,20.7826,1,12664.348974943161,0,2022_09_27_13_42_23_GA8-cnn_gap8.log,RATIT:65536 ITS:24287 TIME_IT:30 CYCLE_IT:3795 ACCTIME:651562 ACCCYCLES:92223989,ITS:24287 TIME_IT:30 CYCLE_IT:3795 CYCLES:92223989 TIME:651562,cnnop_RAD_PARALLEL_VECT_MAX_POOL,1,1,0,0,,24287.0,3795.0,SINGLE
2022-09-27 17:21:02,189,300.0193,2,13117.780489683151,0,2022_09_27_13_42_23_GA8-cnn_gap8.log,,,cnnop_RAD_PARALLEL_VECT_MAX_POOL,0,1,1,1,TIMEOUT_ERROR,,,MASKED
2022-09-27 09:37:16,0,12.9344,1,12.934361457824707,0,2022_09_27_09_37_03_GA8-cnn_gap8.log,RATIT:32768 ITS:4519 TIME_IT:122 CYCLE_IT:22745 ACCTIME:609731 ACCCYCLES:103020833,ITS:4519 TIME_IT:122 CYCLE_IT:22745 CYCLES:103020833 TIME:609731,cnnop_RAD_PARALLEL_VECT_CONV,1,1,0,0,,4519.0,22745.0,SINGLE
2022-09-27 09:38:20,1,63.8632,1,76.79755330085754,1,2022_09_27_09_37_03_GA8-cnn_gap8.log,RATIT:32768 ITS:27269 TIME_IT:122 CYCLE_IT:22872 ACCTIME:3678779 ACCCYCLES:621654485,ITS:27269 TIME_IT:122 CYCLE_IT:22872 CYCLES:621654485 TIME:3678779,cnnop_RAD_PARALLEL_VECT_CONV,1,1,0,0,,27269.0,22872.0,SINGLE
2022-09-27 09:39:47,3,11.3149,1,163.89552783966064,0,2022_09_27_09_37_03_GA8-cnn_gap8.log,RATIT:32768 ITS:3796 TIME_IT:153 CYCLE_IT:22844 ACCTIME:511875 ACCCYCLES:86538324,ITS:3796 TIME_IT:153 CYCLE_IT:22844 CYCLES:86538324 TIME:511875,cnnop_RAD_PARALLEL_VECT_CONV,1,1,0,0,,3796.0,22844.0,SINGLE
2022-09-27 09:40:22,4,35.8073,1,199.7028341293335,1,2022_09_27_09_37_03_GA8-cnn_gap8.log,RATIT:32768 ITS:14449 TIME_IT:122 CYCLE_IT:22744 ACCTIME:1949420 ACCCYCLES:329393069,ITS:14449 TIME_IT:122 CYCLE_IT:22744 CYCLES:329393069 TIME:1949420,cnnop_RAD_PARALLEL_VECT_CONV,1,1,0,0,,14449.0,22744.0,SQUARE
2022-09-27 09:41:27,5,64.4029,1,264.10568952560425,2,2022_09_27_09_37_03_GA8-cnn_gap8.log,,ITS:27516 TIME_IT:122 CYCLE_IT:22790 CYCLES:627272870 TIME:3711834,cnnop_RAD_PARALLEL_VECT_CONV,1,1,0,0,,27516.0,22790.0,SINGLE
2022-09-28 00:07:49,21,4.4619,1,164.16101956367493,0,2022_09_28_00_05_05_GA8-cnn_gap8.log,RATIT:262144 ITS:1 TIME_IT:30 CYCLE_IT:2426 ACCTIME:30 ACCCYCLES:2426,ITS:1 TIME_IT:30 CYCLE_IT:2426 CYCLES:2426 TIME:30,cnnop_RAD_PARALLEL_VECT_LINEAR,1,1,0,0,,1.0,2426.0,LINE
2022-09-28 00:08:27,26,7.0829,1,202.00291514396667,0,2022_09_28_00_05_05_GA8-cnn_gap8.log,RATIT:262144 ITS:213433 TIME_IT:0 CYCLE_IT:2201 ACCTIME:3749276 ACCCYCLES:468352272,ITS:213433 TIME_IT:0 CYCLE_IT:2201 CYCLES:468352272 TIME:3749276,cnnop_RAD_PARALLEL_VECT_LINEAR,1,1,0,0,,213433.0,2201.0,SINGLE
2022-09-28 00:11:25,50,2.7096,1,380.676331281662,0,2022_09_28_00_05_05_GA8-cnn_gap8.log,RATIT:262144 ITS:1 TIME_IT:31 CYCLE_IT:2407 ACCTIME:31 ACCCYCLES:2407,ITS:1 TIME_IT:31 CYCLE_IT:2407 CYCLES:2407 TIME:31,cnnop_RAD_PARALLEL_VECT_LINEAR,1,1,0,0,,1.0,2407.0,SINGLE
2022-09-28 00:12:54,62,4.5544,1,469.77011466026306,0,2022_09_28_00_05_05_GA8-cnn_gap8.log,RATIT:262144 ITS:87192 TIME_IT:31 CYCLE_IT:2198 ACCTIME:1529574 ACCCYCLES:191332168,ITS:87192 TIME_IT:31 CYCLE_IT:2198 CYCLES:191332168 TIME:1529574,cnnop_RAD_PARALLEL_VECT_LINEAR,1,1,0,0,,87192.0,2198.0,SINGLE
2022-09-28 00:13:13,65,2.8182,1,487.9524154663086,0,2022_09_28_00_05_05_GA8-cnn_gap8.log,RATIT:262144 ITS:1 TIME_IT:0 CYCLE_IT:2411 ACCTIME:0 ACCCYCLES:2411,ITS:1 TIME_IT:0 CYCLE_IT:2411 CYCLES:2411 TIME:0,cnnop_RAD_PARALLEL_VECT_LINEAR,1,1,0,0,,1.0,2411.0,SINGLE
2022-09-28 00:13:15,66,2.8118,1,490.76420760154724,1,2022_09_28_00_05_05_GA8-cnn_gap8.log,RATIT:262144 ITS:1 TIME_IT:31 CYCLE_IT:2426 ACCTIME:31 ACCCYCLES:2426,ITS:1 TIME_IT:31 CYCLE_IT:2426 CYCLES:2426 TIME:31,cnnop_RAD_PARALLEL_VECT_LINEAR,1,1,0,0,,1.0,2426.0,SINGLE
2022-09-28 00:14:33,76,8.1179,1,568.0751674175262,0,2022_09_28_00_05_05_GA8-cnn_gap8.log,RATIT:262144 ITS:259804 TIME_IT:30 CYCLE_IT:2202 ACCTIME:4558815 ACCCYCLES:570107638,ITS:259804 TIME_IT:30 CYCLE_IT:2202 CYCLES:570107638 TIME:4558815,cnnop_RAD_PARALLEL_VECT_LINEAR,1,1,0,0,,259804.0,2202.0,RANDOM
2022-09-28 00:26:12,103,500.1026,2,1267.138661146164,0,2022_09_28_00_05_05_GA8-cnn_gap8.log,,,cnnop_RAD_PARALLEL_VECT_LINEAR,0,1,1,1,TIMEOUT_ERROR,,,MASKED
2022-09-28 00:27:30,114,2.3306,1,1345.4830963611603,0,2022_09_28_00_05_05_GA8-cnn_gap8.log,RATIT:262144 ITS:24729 TIME_IT:0 CYCLE_IT:2201 ACCTIME:434025 ACCCYCLES:54264934,ITS:24729 TIME_IT:0 CYCLE_IT:2201 CYCLES:54264934 TIME:434025,cnnop_RAD_PARALLEL_VECT_LINEAR,1,1,0,0,,24729.0,2201.0,SINGLE
2022-09-28 00:30:23,137,3.6379,1,1518.3024909496307,0,2022_09_28_00_05_05_GA8-cnn_gap8.log,RATIT:262144 ITS:42516 TIME_IT:31 CYCLE_IT:2202 ACCTIME:745146 ACCCYCLES:93296285,ITS:42516 TIME_IT:31 CYCLE_IT:2202 CYCLES:93296285 TIME:745146,cnnop_RAD_PARALLEL_VECT_LINEAR,1,1,0,0,,42516.0,2202.0,SINGLE
2022-09-28 00:31:15,144,6.8703,1,1570.4283635616302,0,2022_09_28_00_05_05_GA8-cnn_gap8.log,RATIT:262144 ITS:204762 TIME_IT:0 CYCLE_IT:2190 ACCTIME:3590297 ACCCYCLES:449324828,ITS:204762 TIME_IT:0 CYCLE_IT:2190 CYCLES:449324828 TIME:3590297,cnnop_RAD_PARALLEL_VECT_LINEAR,1,1,0,0,,204762.0,2190.0,SINGLE
2022-09-28 00:31:38,147,7.1028,1,1592.915022611618,0,2022_09_28_00_05_05_GA8-cnn_gap8.log,RATIT:262144 ITS:259843 TIME_IT:30 CYCLE_IT:2195 ACCTIME:4557481 ACCCYCLES:570193211,ITS:259843 TIME_IT:30 CYCLE_IT:2195 CYCLES:570193211 TIME:4557481,cnnop_RAD_PARALLEL_VECT_LINEAR,1,1,0,0,,259843.0,2195.0,SINGLE
2022-09-28 00:42:09,165,500.1033,2,2223.7850370407104,0,2022_09_28_00_05_05_GA8-cnn_gap8.log,,,cnnop_RAD_PARALLEL_VECT_LINEAR,0,1,1,1,TIMEOUT_ERROR,,,MASKED
2022-09-28 00:42:43,170,3.3291,1,2257.8889169692993,0,2022_09_28_00_05_05_GA8-cnn_gap8.log,RATIT:262144 ITS:27187 TIME_IT:0 CYCLE_IT:2195 ACCTIME:476339 ACCCYCLES:59658702,ITS:27187 TIME_IT:0 CYCLE_IT:2195 CYCLES:59658702 TIME:476339,cnnop_RAD_PARALLEL_VECT_LINEAR,1,1,0,0,,27187.0,2195.0,SINGLE
2022-09-28 00:42:49,171,6.4776,1,2264.3665010929108,1,2022_09_28_00_05_05_GA8-cnn_gap8.log,RATIT:262144 ITS:108845 TIME_IT:0 CYCLE_IT:2187 ACCTIME:1909500 ACCCYCLES:238846977,ITS:108845 TIME_IT:0 CYCLE_IT:2187 CYCLES:238846977 TIME:1909500,cnnop_RAD_PARALLEL_VECT_LINEAR,1,1,0,0,,108845.0,2187.0,LINE
2022-09-28 00:42:53,172,4.1289,1,2268.495390176773,2,2022_09_28_00_05_05_GA8-cnn_gap8.log,RATIT:262144 ITS:64988 TIME_IT:30 CYCLE_IT:2202 ACCTIME:1140772 ACCCYCLES:142608261,ITS:64988 TIME_IT:30 CYCLE_IT:2202 CYCLES:142608261 TIME:1140772,cnnop_RAD_PARALLEL_VECT_LINEAR,1,1,0,0,,64988.0,2202.0,SINGLE
2022-09-28 00:43:49,180,2.8189,1,2324.2521674633026,0,2022_09_28_00_05_05_GA8-cnn_gap8.log,RATIT:262144 ITS:1 TIME_IT:30 CYCLE_IT:2424 ACCTIME:30 ACCCYCLES:2424,ITS:1 TIME_IT:30 CYCLE_IT:2424 CYCLES:2424 TIME:30,cnnop_RAD_PARALLEL_VECT_LINEAR,1,1,0,0,,1.0,2424.0,SINGLE
2022-09-28 00:44:32,186,4.3298,1,2366.992828130722,0,2022_09_28_00_05_05_GA8-cnn_gap8.log,RATIT:262144 ITS:1 TIME_IT:0 CYCLE_IT:2404 ACCTIME:0 ACCCYCLES:2404,ITS:1 TIME_IT:0 CYCLE_IT:2404 CYCLES:2404 TIME:0,cnnop_RAD_PARALLEL_VECT_LINEAR,1,1,0,0,,1.0,2404.0,LINE
2022-09-28 00:45:55,197,6.4651,1,2450.3437299728394,0,2022_09_28_00_05_05_GA8-cnn_gap8.log,RATIT:262144 ITS:184107 TIME_IT:0 CYCLE_IT:2195 ACCTIME:3230541 ACCCYCLES:404000025,ITS:184107 TIME_IT:0 CYCLE_IT:2195 CYCLES:404000025 TIME:3230541,cnnop_RAD_PARALLEL_VECT_LINEAR,1,1,0,0,,184107.0,2195.0,SINGLE
2022-09-28 00:46:22,201,3.9393,1,2477.3292412757874,0,2022_09_28_00_05_05_GA8-cnn_gap8.log,RATIT:262144 ITS:59069 TIME_IT:31 CYCLE_IT:2187 ACCTIME:1037125 ACCCYCLES:129619750,ITS:59069 TIME_IT:31 CYCLE_IT:2187 CYCLES:129619750 TIME:1037125,cnnop_RAD_PARALLEL_VECT_LINEAR,1,1,0,0,,59069.0,2187.0,SINGLE
2022-09-28 00:48:21,217,2.8102,1,2595.4987926483154,0,2022_09_28_00_05_05_GA8-cnn_gap8.log,RATIT:262144 ITS:1 TIME_IT:30 CYCLE_IT:2411 ACCTIME:30 ACCCYCLES:2411,ITS:1 TIME_IT:30 CYCLE_IT:2411 CYCLES:2411 TIME:30,cnnop_RAD_PARALLEL_VECT_LINEAR,1,1,0,0,,1.0,2411.0,SINGLE
2022-09-28 00:50:41,236,2.826,1,2735.873910665512,0,2022_09_28_00_05_05_GA8-cnn_gap8.log,RATIT:262144 ITS:3635 TIME_IT:30 CYCLE_IT:2195 ACCTIME:63750 ACCCYCLES:7976782,ITS:3635 TIME_IT:30 CYCLE_IT:2195 CYCLES:7976782 TIME:63750,cnnop_RAD_PARALLEL_VECT_LINEAR,1,1,0,0,,3635.0,2195.0,SINGLE
2022-09-28 00:54:35,267,4.053,1,2969.7348799705505,0,2022_09_28_00_05_05_GA8-cnn_gap8.log,RATIT:262144 ITS:109522 TIME_IT:31 CYCLE_IT:2190 ACCTIME:1921394 ACCCYCLES:240332549,ITS:109522 TIME_IT:31 CYCLE_IT:2190 CYCLES:240332549 TIME:1921394,cnnop_RAD_PARALLEL_VECT_LINEAR,1,1,0,0,,109522.0,2190.0,SINGLE
2022-09-28 00:55:01,271,2.8133,1,2995.601499557495,0,2022_09_28_00_05_05_GA8-cnn_gap8.log,RATIT:262144 ITS:1 TIME_IT:0 CYCLE_IT:2409 ACCTIME:0 ACCCYCLES:2409,ITS:1 TIME_IT:0 CYCLE_IT:2409 CYCLES:2409 TIME:0,cnnop_RAD_PARALLEL_VECT_LINEAR,1,1,0,0,,1.0,2409.0,SINGLE
2022-09-28 00:58:00,295,3.8132,1,3175.279283285141,0,2022_09_28_00_05_05_GA8-cnn_gap8.log,RATIT:262144 ITS:58353 TIME_IT:31 CYCLE_IT:2201 ACCTIME:1024692 ACCCYCLES:128048596,ITS:58353 TIME_IT:31 CYCLE_IT:2201 CYCLES:128048596 TIME:1024692,cnnop_RAD_PARALLEL_VECT_LINEAR,0,1,0,0,,58353.0,2201.0,MASKED
2022-09-28 01:06:44,299,500.0842,2,3698.4226627349854,0,2022_09_28_00_05_05_GA8-cnn_gap8.log,,,cnnop_RAD_PARALLEL_VECT_LINEAR,0,1,1,1,TIMEOUT_ERROR,,,MASKED
2022-09-28 01:39:14,36,7.5837,1,283.5301582813263,0,2022_09_28_01_34_30_GA8-cnn_gap8.log,RATIT:262144 ITS:238465 TIME_IT:0 CYCLE_IT:2201 ACCTIME:4181840 ACCCYCLES:523281850,ITS:238465 TIME_IT:0 CYCLE_IT:2201 CYCLES:523281850 TIME:4181840,cnnop_RAD_PARALLEL_VECT_LINEAR,1,1,0,0,,238465.0,2201.0,SINGLE
2022-09-28 01:40:34,47,3.8365,1,363.37640500068665,0,2022_09_28_01_34_30_GA8-cnn_gap8.log,RATIT:262144 ITS:54694 TIME_IT:31 CYCLE_IT:2191 ACCTIME:959836 ACCCYCLES:120019370,ITS:54694 TIME_IT:31 CYCLE_IT:2191 CYCLES:120019370 TIME:959836,cnnop_RAD_PARALLEL_VECT_LINEAR,1,1,0,0,,54694.0,2191.0,SINGLE
2022-09-28 01:41:41,56,5.4573,1,430.349666595459,0,2022_09_28_01_34_30_GA8-cnn_gap8.log,RATIT:262144 ITS:134995 TIME_IT:0 CYCLE_IT:2195 ACCTIME:2369320 ACCCYCLES:296229880,ITS:134995 TIME_IT:0 CYCLE_IT:2195 CYCLES:296229880 TIME:2369320,cnnop_RAD_PARALLEL_VECT_LINEAR,1,1,0,0,,134995.0,2195.0,SINGLE
2022-09-28 01:41:45,57,4.051,1,434.40068674087524,1,2022_09_28_01_34_30_GA8-cnn_gap8.log,RATIT:262144 ITS:61170 TIME_IT:0 CYCLE_IT:2190 ACCTIME:1072782 ACCCYCLES:134230130,ITS:61170 TIME_IT:0 CYCLE_IT:2190 CYCLES:134230130 TIME:1072782,cnnop_RAD_PARALLEL_VECT_LINEAR,1,1,0,0,,61170.0,2190.0,SINGLE
2022-09-28 01:42:58,67,4.1405,1,507.72239804267883,0,2022_09_28_01_34_30_GA8-cnn_gap8.log,RATIT:262144 ITS:68944 TIME_IT:31 CYCLE_IT:2198 ACCTIME:1209060 ACCCYCLES:151289196,ITS:68944 TIME_IT:31 CYCLE_IT:2198 CYCLES:151289196 TIME:1209060,cnnop_RAD_PARALLEL_VECT_LINEAR,1,1,0,0,,68944.0,2198.0,SINGLE
2022-09-28 01:43:32,72,3.227,1,541.6728889942169,0,2022_09_28_01_34_30_GA8-cnn_gap8.log,RATIT:262144 ITS:20010 TIME_IT:31 CYCLE_IT:2190 ACCTIME:351086 ACCCYCLES:43909668,ITS:20010 TIME_IT:31 CYCLE_IT:2190 CYCLES:43909668 TIME:351086,cnnop_RAD_PARALLEL_VECT_LINEAR,1,1,0,0,,20010.0,2190.0,SINGLE
2022-09-28 01:44:09,77,6.4741,1,578.9023213386536,0,2022_09_28_01_34_30_GA8-cnn_gap8.log,RATIT:262144 ITS:182594 TIME_IT:31 CYCLE_IT:2190 ACCTIME:3203966 ACCCYCLES:400679935,ITS:182594 TIME_IT:31 CYCLE_IT:2190 CYCLES:400679935 TIME:3203966,cnnop_RAD_PARALLEL_VECT_LINEAR,1,1,0,0,,182594.0,2190.0,SINGLE
2022-09-28 01:46:08,93,4.3576,1,697.6891055107117,0,2022_09_28_01_34_30_GA8-cnn_gap8.log,RATIT:262144 ITS:77077 TIME_IT:0 CYCLE_IT:2187 ACCTIME:1352110 ACCCYCLES:169136057,ITS:77077 TIME_IT:0 CYCLE_IT:2187 CYCLES:169136057 TIME:1352110,cnnop_RAD_PARALLEL_VECT_LINEAR,1,1,0,0,,77077.0,2187.0,SINGLE
2022-09-28 01:48:28,112,2.8169,1,837.1456046104431,0,2022_09_28_01_34_30_GA8-cnn_gap8.log,RATIT:262144 ITS:1 TIME_IT:30 CYCLE_IT:2404 ACCTIME:30 ACCCYCLES:2404,ITS:1 TIME_IT:30 CYCLE_IT:2404 CYCLES:2404 TIME:30,cnnop_RAD_PARALLEL_VECT_LINEAR,1,1,0,0,,1.0,2404.0,SINGLE
2022-09-28 01:48:50,115,6.5736,1,859.0988702774048,0,2022_09_28_01_34_30_GA8-cnn_gap8.log,RATIT:262144 ITS:189113 TIME_IT:30 CYCLE_IT:2201 ACCTIME:3317381 ACCCYCLES:414985070,ITS:189113 TIME_IT:30 CYCLE_IT:2201 CYCLES:414985070 TIME:3317381,cnnop_RAD_PARALLEL_VECT_LINEAR,1,1,0,0,,189113.0,2201.0,SINGLE
2022-09-28 01:49:47,117,50.0449,2,916.8296589851379,0,2022_09_28_01_34_30_GA8-cnn_gap8.log,,,cnnop_RAD_PARALLEL_VECT_LINEAR,0,1,1,1,TIMEOUT_ERROR,,,MASKED
2022-09-28 01:50:37,118,50.0103,2,966.8399107456207,1,2022_09_28_01_34_30_GA8-cnn_gap8.log,,,cnnop_RAD_PARALLEL_VECT_LINEAR,0,1,1,1,TIMEOUT_ERROR,,,MASKED
2022-09-28 01:51:44,127,5.4553,1,1032.8990609645844,0,2022_09_28_01_34_30_GA8-cnn_gap8.log,RATIT:262144 ITS:134584 TIME_IT:31 CYCLE_IT:2198 ACCTIME:2361603 ACCCYCLES:295327973,ITS:134584 TIME_IT:31 CYCLE_IT:2198 CYCLES:295327973 TIME:2361603,cnnop_RAD_PARALLEL_VECT_LINEAR,1,1,0,0,,134584.0,2198.0,SINGLE
2022-09-28 01:57:15,165,50.0506,2,1364.7529900074005,0,2022_09_28_01_34_30_GA8-cnn_gap8.log,,,cnnop_RAD_PARALLEL_VECT_LINEAR,0,1,1,1,TIMEOUT_ERROR,,,MASKED
2022-09-28 01:57:54,170,7.2797,1,1402.8085417747498,0,2022_09_28_01_34_30_GA8-cnn_gap8.log,RATIT:262144 ITS:221218 TIME_IT:0 CYCLE_IT:2190 ACCTIME:3881526 ACCCYCLES:485435461,ITS:221218 TIME_IT:0 CYCLE_IT:2190 CYCLES:485435461 TIME:3881526,cnnop_RAD_PARALLEL_VECT_LINEAR,1,1,0,0,,221218.0,2190.0,SINGLE
2022-09-28 01:58:19,174,2.8104,1,1428.6804287433624,0,2022_09_28_01_34_30_GA8-cnn_gap8.log,RATIT:262144 ITS:1 TIME_IT:0 CYCLE_IT:2411 ACCTIME:0 ACCCYCLES:2411,ITS:1 TIME_IT:0 CYCLE_IT:2411 CYCLES:2411 TIME:0,cnnop_RAD_PARALLEL_VECT_LINEAR,1,1,0,0,,1.0,2411.0,SINGLE
2022-09-28 01:58:47,178,4.5471,1,1456.2862200737,0,2022_09_28_01_34_30_GA8-cnn_gap8.log,RATIT:262144 ITS:89820 TIME_IT:30 CYCLE_IT:2202 ACCTIME:1575801 ACCCYCLES:197098980,ITS:89820 TIME_IT:30 CYCLE_IT:2202 CYCLES:197098980 TIME:1575801,cnnop_RAD_PARALLEL_VECT_LINEAR,1,1,0,0,,89820.0,2202.0,SINGLE
2022-09-28 02:01:17,198,4.8503,1,1606.3625099658966,0,2022_09_28_01_34_30_GA8-cnn_gap8.log,RATIT:262144 ITS:104680 TIME_IT:0 CYCLE_IT:2198 ACCTIME:1836526 ACCCYCLES:229707385,ITS:104680 TIME_IT:0 CYCLE_IT:2198 CYCLES:229707385 TIME:1836526,cnnop_RAD_PARALLEL_VECT_LINEAR,1,1,0,0,,104680.0,2198.0,SINGLE
2022-09-28 02:06:13,231,50.0524,2,1902.4530832767487,0,2022_09_28_01_34_30_GA8-cnn_gap8.log,,,cnnop_RAD_PARALLEL_VECT_LINEAR,0,1,1,1,TIMEOUT_ERROR,,,MASKED
2022-09-28 02:08:42,245,50.0202,2,2051.590352535248,0,2022_09_28_01_34_30_GA8-cnn_gap8.log,,,cnnop_RAD_PARALLEL_VECT_LINEAR,0,1,1,1,TIMEOUT_ERROR,,,MASKED
2022-09-28 02:09:03,248,4.9508,1,2071.928610801697,0,2022_09_28_01_34_30_GA8-cnn_gap8.log,RATIT:262144 ITS:106437 TIME_IT:0 CYCLE_IT:2187 ACCTIME:1867745 ACCCYCLES:233562920,ITS:106437 TIME_IT:0 CYCLE_IT:2187 CYCLES:233562920 TIME:1867745,cnnop_RAD_PARALLEL_VECT_LINEAR,1,1,0,0,,106437.0,2187.0,SINGLE
2022-09-28 02:10:57,263,7.4713,1,2186.150112390518,0,2022_09_28_01_34_30_GA8-cnn_gap8.log,RATIT:262144 ITS:234026 TIME_IT:0 CYCLE_IT:2190 ACCTIME:4106135 ACCCYCLES:513541013,ITS:234026 TIME_IT:0 CYCLE_IT:2190 CYCLES:513541013 TIME:4106135,cnnop_RAD_PARALLEL_VECT_LINEAR,1,1,0,0,,234026.0,2190.0,SINGLE
2022-09-28 02:12:00,271,9.1119,1,2249.08385682106,0,2022_09_28_01_34_30_GA8-cnn_gap8.log,RATIT:262144 ITS:237609 TIME_IT:0 CYCLE_IT:2201 ACCTIME:4168212 ACCCYCLES:521403464,ITS:237609 TIME_IT:0 CYCLE_IT:2201 CYCLES:521403464 TIME:4168212,cnnop_RAD_PARALLEL_VECT_LINEAR,1,1,0,0,,237609.0,2201.0,LINE
2022-09-28 02:12:15,273,6.778,1,2263.5461966991425,0,2022_09_28_01_34_30_GA8-cnn_gap8.log,RATIT:262144 ITS:197276 TIME_IT:31 CYCLE_IT:2202 ACCTIME:3459621 ACCCYCLES:432897745,ITS:197276 TIME_IT:31 CYCLE_IT:2202 CYCLES:432897745 TIME:3459621,cnnop_RAD_PARALLEL_VECT_LINEAR,1,1,0,0,,197276.0,2202.0,SINGLE
2022-09-28 02:14:13,289,2.7997,1,2381.584787130356,0,2022_09_28_01_34_30_GA8-cnn_gap8.log,RATIT:262144 ITS:1 TIME_IT:0 CYCLE_IT:2427 ACCTIME:0 ACCCYCLES:2427,ITS:1 TIME_IT:0 CYCLE_IT:2427 CYCLES:2427 TIME:0,cnnop_RAD_PARALLEL_VECT_LINEAR,1,1,0,0,,1.0,2427.0,SINGLE
2022-09-28 02:15:40,301,3.0632,1,2469.170270681381,0,2022_09_28_01_34_30_GA8-cnn_gap8.log,RATIT:262144 ITS:1 TIME_IT:0 CYCLE_IT:2410 ACCTIME:0 ACCCYCLES:2410,ITS:1 TIME_IT:0 CYCLE_IT:2410 CYCLES:2410 TIME:0,cnnop_RAD_PARALLEL_VECT_LINEAR,1,1,0,0,,1.0,2410.0,LINE
2022-09-28 02:18:08,321,2.5343,1,2616.8814458847046,0,2022_09_28_01_34_30_GA8-cnn_gap8.log,RATIT:262144 ITS:31590 TIME_IT:30 CYCLE_IT:2191 ACCTIME:554445 ACCCYCLES:69320517,ITS:31590 TIME_IT:30 CYCLE_IT:2191 CYCLES:69320517 TIME:554445,cnnop_RAD_PARALLEL_VECT_LINEAR,1,1,0,0,,31590.0,2191.0,SINGLE
2022-09-28 02:18:52,327,5.5525,1,2660.863411426544,0,2022_09_28_01_34_30_GA8-cnn_gap8.log,RATIT:262144 ITS:136359 TIME_IT:30 CYCLE_IT:2191 ACCTIME:2392529 ACCCYCLES:299222985,ITS:136359 TIME_IT:30 CYCLE_IT:2191 CYCLES:299222985 TIME:2392529,cnnop_RAD_PARALLEL_VECT_LINEAR,1,1,0,0,,136359.0,2191.0,SINGLE
2022-09-28 02:21:11,345,9.6111,1,2800.2419481277466,0,2022_09_28_01_34_30_GA8-cnn_gap8.log,RATIT:262144 ITS:241975 TIME_IT:0 CYCLE_IT:2191 ACCTIME:4244978 ACCCYCLES:530984113,ITS:241975 TIME_IT:0 CYCLE_IT:2191 CYCLES:530984113 TIME:4244978,cnnop_RAD_PARALLEL_VECT_LINEAR,1,1,0,0,,241975.0,2191.0,LINE
2022-09-28 02:27:26,395,2.8,1,3174.4016275405884,0,2022_09_28_01_34_30_GA8-cnn_gap8.log,RATIT:262144 ITS:1 TIME_IT:0 CYCLE_IT:2410 ACCTIME:0 ACCCYCLES:2410,ITS:1 TIME_IT:0 CYCLE_IT:2410 CYCLES:2410 TIME:0,cnnop_RAD_PARALLEL_VECT_LINEAR,1,1,0,0,,1.0,2410.0,SINGLE
2022-09-28 02:28:31,404,3.7387,1,3239.6395361423492,0,2022_09_28_01_34_30_GA8-cnn_gap8.log,RATIT:262144 ITS:48061 TIME_IT:31 CYCLE_IT:2187 ACCTIME:843201 ACCCYCLES:105464088,ITS:48061 TIME_IT:31 CYCLE_IT:2187 CYCLES:105464088 TIME:843201,cnnop_RAD_PARALLEL_VECT_LINEAR,1,1,0,0,,48061.0,2187.0,SINGLE
2022-09-28 02:30:45,422,6.5682,1,3374.154952764511,0,2022_09_28_01_34_30_GA8-cnn_gap8.log,RATIT:262144 ITS:186201 TIME_IT:31 CYCLE_IT:2201 ACCTIME:3263643 ACCCYCLES:408595036,ITS:186201 TIME_IT:31 CYCLE_IT:2201 CYCLES:408595036 TIME:3263643,cnnop_RAD_PARALLEL_VECT_LINEAR,1,1,0,0,,186201.0,2201.0,SINGLE
2022-09-28 02:31:04,425,2.9406,1,3392.473071336746,0,2022_09_28_01_34_30_GA8-cnn_gap8.log,RATIT:262144 ITS:1 TIME_IT:31 CYCLE_IT:2427 ACCTIME:31 ACCCYCLES:2427,ITS:1 TIME_IT:31 CYCLE_IT:2427 CYCLES:2427 TIME:31,cnnop_RAD_PARALLEL_VECT_LINEAR,1,1,0,0,,1.0,2427.0,RANDOM
2022-09-28 02:32:06,433,8.0993,1,3454.386604785919,0,2022_09_28_01_34_30_GA8-cnn_gap8.log,RATIT:262144 ITS:258475 TIME_IT:30 CYCLE_IT:2195 ACCTIME:4532084 ACCCYCLES:567191308,ITS:258475 TIME_IT:30 CYCLE_IT:2195 CYCLES:567191308 TIME:4532084,cnnop_RAD_PARALLEL_VECT_LINEAR,1,1,0,0,,258475.0,2195.0,RANDOM
2022-09-28 02:32:26,436,4.9479,1,3474.7169110774994,0,2022_09_28_01_34_30_GA8-cnn_gap8.log,RATIT:262144 ITS:104988 TIME_IT:30 CYCLE_IT:2202 ACCTIME:1840723 ACCCYCLES:230383263,ITS:104988 TIME_IT:30 CYCLE_IT:2202 CYCLES:230383263 TIME:1840723,cnnop_RAD_PARALLEL_VECT_LINEAR,1,1,0,0,,104988.0,2202.0,SINGLE
2022-09-27 17:57:19,3,43.8915,1,218.8760781288147,0,2022_09_27_17_53_40_GA8-cnn_gap8.log,RATIT:65536 ITS:47970 TIME_IT:153 CYCLE_IT:25675 ACCTIME:7230028 ACCCYCLES:1231629896,ITS:47970 TIME_IT:153 CYCLE_IT:25675 CYCLES:1231629896 TIME:7230028,cnnop_RAD_SEQUENTIAL_MAX_POOL,1,1,0,0,,47970.0,25675.0,RANDOM
2022-09-27 18:06:37,5,500.0174,2,777.2318346500397,0,2022_09_27_17_53_40_GA8-cnn_gap8.log,,,cnnop_RAD_SEQUENTIAL_MAX_POOL,0,1,1,1,TIMEOUT_ERROR,,,MASKED
2022-09-27 18:07:15,6,37.9173,1,815.1491384506226,0,2022_09_27_17_53_40_GA8-cnn_gap8.log,RATIT:65536 ITS:40958 TIME_IT:152 CYCLE_IT:25675 ACCTIME:6190933 ACCCYCLES:1051596797,ITS:40958 TIME_IT:152 CYCLE_IT:25675 CYCLES:1051596797 TIME:6190933,cnnop_RAD_SEQUENTIAL_MAX_POOL,1,1,0,0,,40958.0,25675.0,RANDOM
2022-09-27 18:13:05,12,58.4934,1,1165.5146498680115,0,2022_09_27_17_53_40_GA8-cnn_gap8.log,RATIT:65536 ITS:65536 TIME_IT:152 CYCLE_IT:25675 ACCTIME:9870358 ACCCYCLES:1682636946,,cnnop_RAD_SEQUENTIAL_MAX_POOL,0,0,1,0,,,,MASKED
2022-09-27 18:23:22,15,500.0368,2,1782.2766633033752,0,2022_09_27_17_53_40_GA8-cnn_gap8.log,,,cnnop_RAD_SEQUENTIAL_MAX_POOL,0,1,1,1,TIMEOUT_ERROR,,,MASKED
2022-09-27 18:25:16,17,55.7956,1,1896.4955196380615,0,2022_09_27_17_53_40_GA8-cnn_gap8.log,RATIT:65536 ITS:62905 TIME_IT:153 CYCLE_IT:25675 ACCTIME:9485705 ACCCYCLES:1615086023,ITS:62905 TIME_IT:153 CYCLE_IT:25675 CYCLES:1615086023 TIME:9485705,cnnop_RAD_SEQUENTIAL_MAX_POOL,1,1,0,0,,62905.0,25675.0,RANDOM
2022-09-27 18:26:30,19,16.4676,1,1970.4027259349823,0,2022_09_27_17_53_40_GA8-cnn_gap8.log,RATIT:65536 ITS:15919 TIME_IT:153 CYCLE_IT:25675 ACCTIME:2395840 ACCCYCLES:408720473,ITS:15919 TIME_IT:153 CYCLE_IT:25675 CYCLES:408720473 TIME:2395840,cnnop_RAD_SEQUENTIAL_MAX_POOL,1,1,0,0,,15919.0,25675.0,RANDOM
2022-09-27 18:36:46,22,500.1029,2,2586.312230825424,0,2022_09_27_17_53_40_GA8-cnn_gap8.log,,,cnnop_RAD_SEQUENTIAL_MAX_POOL,0,1,1,1,TIMEOUT_ERROR,,,MASKED
2022-09-27 18:37:34,23,47.5992,1,2633.9113833904266,0,2022_09_27_17_53_40_GA8-cnn_gap8.log,RATIT:65536 ITS:52532 TIME_IT:152 CYCLE_IT:25675 ACCTIME:7915407 ACCCYCLES:1348759247,ITS:52532 TIME_IT:152 CYCLE_IT:25675 CYCLES:1348759247 TIME:7915407,cnnop_RAD_SEQUENTIAL_MAX_POOL,1,1,0,0,,52532.0,25675.0,SINGLE
2022-09-27 18:38:14,24,39.9246,1,2673.835941553116,1,2022_09_27_17_53_40_GA8-cnn_gap8.log,RATIT:65536 ITS:43490 TIME_IT:152 CYCLE_IT:25675 ACCTIME:6549937 ACCCYCLES:1116605897,ITS:43490 TIME_IT:152 CYCLE_IT:25675 CYCLES:1116605897 TIME:6549937,cnnop_RAD_SEQUENTIAL_MAX_POOL,1,1,0,0,,43490.0,25675.0,SINGLE
2022-09-27 18:41:00,27,49.7307,1,2840.2482721805573,0,2022_09_27_17_53_40_GA8-cnn_gap8.log,RATIT:65536 ITS:54936 TIME_IT:153 CYCLE_IT:25675 ACCTIME:8280122 ACCCYCLES:1410481947,ITS:54936 TIME_IT:153 CYCLE_IT:25675 CYCLES:1410481947 TIME:8280122,cnnop_RAD_SEQUENTIAL_MAX_POOL,1,1,0,0,,54936.0,25675.0,SINGLE
2022-09-27 18:44:08,31,13.138,1,3028.3633682727814,0,2022_09_27_17_53_40_GA8-cnn_gap8.log,RATIT:65536 ITS:12158 TIME_IT:122 CYCLE_IT:25675 ACCTIME:1833427 ACCCYCLES:312156800,ITS:12158 TIME_IT:122 CYCLE_IT:25675 CYCLES:312156800 TIME:1833427,cnnop_RAD_SEQUENTIAL_MAX_POOL,1,1,0,0,,12158.0,25675.0,SINGLE
2022-09-27 18:45:16,33,8.8846,1,3095.5973086357117,0,2022_09_27_17_53_40_GA8-cnn_gap8.log,RATIT:65536 ITS:8175 TIME_IT:153 CYCLE_IT:25675 ACCTIME:1229495 ACCCYCLES:209893271,ITS:8175 TIME_IT:153 CYCLE_IT:25675 CYCLES:209893271 TIME:1229495,cnnop_RAD_SEQUENTIAL_MAX_POOL,1,1,0,0,,8175.0,25675.0,SINGLE
2022-09-27 18:57:29,38,500.0099,2,3828.9371881484985,0,2022_09_27_17_53_40_GA8-cnn_gap8.log,,,cnnop_RAD_SEQUENTIAL_MAX_POOL,0,1,1,1,TIMEOUT_ERROR,,,MASKED
2022-09-27 21:29:09,4,25.6822,1,211.69691348075867,0,2022_09_27_21_25_37_GA8-cnn_gap8.log,,,cnnop_RAD_SEQUENTIAL_LINEAR,1,1,0,0,,67995.0,57641.0,SINGLE
2022-09-27 21:29:53,5,43.782,1,255.47894668579102,1,2022_09_27_21_25_37_GA8-cnn_gap8.log,,,cnnop_RAD_SEQUENTIAL_LINEAR,1,1,0,0,,121466.0,57641.0,LINE
2022-09-27 21:32:15,9,2.7995,1,397.8436543941498,0,2022_09_27_21_25_37_GA8-cnn_gap8.log,RATIT:131072 ITS:1 TIME_IT:336 CYCLE_IT:57800 ACCTIME:336 ACCCYCLES:57800,ITS:1 TIME_IT:336 CYCLE_IT:57800 CYCLES:57800 TIME:336,cnnop_RAD_SEQUENTIAL_LINEAR,1,1,0,0,,1.0,57800.0,SINGLE
2022-09-27 21:32:25,10,9.3939,1,407.23750829696655,1,2022_09_27_21_25_37_GA8-cnn_gap8.log,RATIT:131072 ITS:19662 TIME_IT:336 CYCLE_IT:57641 ACCTIME:6572782 ACCCYCLES:1133337504,ITS:19662 TIME_IT:336 CYCLE_IT:57641 CYCLES:1133337504 TIME:6572782,cnnop_RAD_SEQUENTIAL_LINEAR,1,1,0,0,,19662.0,57641.0,SINGLE
2022-09-27 21:33:57,12,45.9886,1,499.7240626811981,0,2022_09_27_21_25_37_GA8-cnn_gap8.log,,,cnnop_RAD_SEQUENTIAL_LINEAR,1,1,0,0,,128252.0,57641.0,SINGLE
2022-09-27 21:36:47,16,30.2241,1,669.4420149326324,0,2022_09_27_21_25_37_GA8-cnn_gap8.log,RATIT:131072 ITS:81332 TIME_IT:336 CYCLE_IT:57641 ACCTIME:27187666 ACCCYCLES:393090677,ITS:81332 TIME_IT:336 CYCLE_IT:57641 CYCLES:393090677 TIME:27187666,cnnop_RAD_SEQUENTIAL_LINEAR,1,1,0,0,,81332.0,57641.0,SINGLE
2022-09-27 21:39:00,19,39.426,1,801.9851801395416,0,2022_09_27_21_25_37_GA8-cnn_gap8.log,RATIT:131072 ITS:108759 TIME_IT:336 CYCLE_IT:57641 ACCTIME:36354248 ACCCYCLES:1974010385,ITS:108759 TIME_IT:336 CYCLE_IT:57641 CYCLES:1974010385 TIME:36354248,cnnop_RAD_SEQUENTIAL_LINEAR,1,1,0,0,,108759.0,57641.0,SINGLE
2022-09-27 21:41:00,22,27.4008,1,922.4265370368958,0,2022_09_27_21_25_37_GA8-cnn_gap8.log,RATIT:131072 ITS:75798 TIME_IT:336 CYCLE_IT:57641 ACCTIME:25337522 ACCCYCLES:74105382,ITS:75798 TIME_IT:336 CYCLE_IT:57641 CYCLES:74105382 TIME:25337522,cnnop_RAD_SEQUENTIAL_LINEAR,1,1,0,0,,75798.0,57641.0,SINGLE
2022-09-27 21:41:29,23,28.7989,1,951.2254431247711,1,2022_09_27_21_25_37_GA8-cnn_gap8.log,RATIT:131072 ITS:77265 TIME_IT:336 CYCLE_IT:57641 ACCTIME:25826253 ACCCYCLES:158664729,ITS:77265 TIME_IT:336 CYCLE_IT:57641 CYCLES:158664729 TIME:25826253,cnnop_RAD_SEQUENTIAL_LINEAR,1,1,0,0,,77265.0,57641.0,SINGLE
2022-09-27 21:47:28,31,34.4684,1,1310.434119462967,0,2022_09_27_21_25_37_GA8-cnn_gap8.log,RATIT:131072 ITS:93952 TIME_IT:336 CYCLE_IT:57641 ACCTIME:31405163 ACCCYCLES:1120520095,ITS:93952 TIME_IT:336 CYCLE_IT:57641 CYCLES:1120520095 TIME:31405163,cnnop_RAD_SEQUENTIAL_LINEAR,1,1,0,0,,93952.0,57641.0,SINGLE
2022-09-27 21:47:36,32,8.1806,1,1318.6146717071533,1,2022_09_27_21_25_37_GA8-cnn_gap8.log,RATIT:131072 ITS:15954 TIME_IT:305 CYCLE_IT:57641 ACCTIME:5332881 ACCCYCLES:919604675,ITS:15954 TIME_IT:305 CYCLE_IT:57641 CYCLES:919604675 TIME:5332881,cnnop_RAD_SEQUENTIAL_LINEAR,1,1,0,0,,15954.0,57641.0,SINGLE
